{
	"Type": "Live2D Expression",
	"FadeInTime": 1.5,
	"Parameters": [
		{
			"Id": "ParamBrowLY",
			"Value": 0,
			"Blend": "Overwrite"
		},
		{
			"Id": "ParamBrowRY",
			"Value": 0,
			"Blend": "Overwrite"
		},
		{
			"Id": "ParamBrowLAngle",
			"Value": 0,
			"Blend": "Overwrite"
		},
		{
			"Id": "ParamBrowRAngle",
			"Value": 0,
			"Blend": "Overwrite"
		},
		{
			"Id": "ParamBrowLForm",
			"Value": 0,
			"Blend": "Overwrite"
		},
		{
			"Id": "ParamBrowRForm",
			"Value": 0,
			"Blend": "Overwrite"
		}
	]
}