{
	"Type": "Live2D Expression",
	"FadeInTime": 1.5,
	"Parameters": [
		{
			"Id": "AngleX_ex",
			"Value": 0,
			"Blend": "Overwrite"
		},
		{
			"Id": "AngleY_ex",
			"Value": 0,
			"Blend": "Overwrite"
		},
		{
			"Id": "AngleZ_ex",
			"Value": -23.023,
			"Blend": "Overwrite"
		},
		{
			"Id": "ParamEyeLOpen",
			"Value": 1,
			"Blend": "Overwrite"
		},
		{
			"Id": "ParamEyeLSmile",
			"Value": 0,
			"Blend": "Overwrite"
		},
		{
			"Id": "ParamEyeROpen",
			"Value": 0,
			"Blend": "Overwrite"
		},
		{
			"Id": "ParamEyeRSmile",
			"Value": 0,
			"Blend": "Overwrite"
		},
		{
			"Id": "ParamEyeBallX",
			"Value": 0,
			"Blend": "Overwrite"
		},
		{
			"Id": "ParamEyeBallY",
			"Value": 0,
			"Blend": "Overwrite"
		},
		{
			"Id": "ParamBrowLY",
			"Value": -0.14,
			"Blend": "Overwrite"
		},
		{
			"Id": "ParamBrowRY",
			"Value": -0.977,
			"Blend": "Overwrite"
		},
		{
			"Id": "ParamBrowLAngle",
			"Value": 0,
			"Blend": "Overwrite"
		},
		{
			"Id": "ParamBrowRAngle",
			"Value": 0,
			"Blend": "Overwrite"
		},
		{
			"Id": "ParamBrowLForm",
			"Value": 0,
			"Blend": "Overwrite"
		},
		{
			"Id": "ParamBrowRForm",
			"Value": 0,
			"Blend": "Overwrite"
		},
		{
			"Id": "m_Default",
			"Value": 0,
			"Blend": "Overwrite"
		},
		{
			"Id": "m_Open03",
			"Value": 1,
			"Blend": "Overwrite"
		}
	]
}