{
	"Version": 3,
	"FileReferences": {
		"Moc": "KasumiL2D.moc3",
		"Textures": [
			"KasumiL2D.4096/texture_00.png"
		],
		"DisplayInfo": "KasumiL2D.cdi3.json",
		"Expressions": [
			{
				"Name": "Brows_Angry",
				"File": "Brows_Angry.exp3.json"
			},
			{
				"Name": "Brows_Center",
				"File": "Brows_Center.exp3.json"
			},
			{
				"Name": "Brows_Default",
				"File": "Brows_Default.exp3.json"
			},
			{
				"Name": "Brows_Sad",
				"File": "Brows_Sad.exp3.json"
			},
			{
				"Name": "Brows_Up",
				"File": "Brows_Up.exp3.json"
			},
			{
				"Name": "Exp_Annoyed",
				"File": "Exp_Annoyed.exp3.json"
			},
			{
				"Name": "Exp_Annoyed02",
				"File": "Exp_Annoyed02.exp3.json"
			},
			{
				"Name": "Exp_Casual",
				"File": "Exp_Casual.exp3.json"
			},
			{
				"Name": "Exp_Casual02",
				"File": "Exp_Casual02.exp3.json"
			},
			{
				"Name": "Exp_Curious",
				"File": "Exp_Curious.exp3.json"
			},
			{
				"Name": "Exp_Default",
				"File": "Exp_Default.exp3.json"
			},
			{
				"Name": "Exp_Disbelief",
				"File": "Exp_Disbelief.exp3.json"
			},
			{
				"Name": "Exp_Happy",
				"File": "Exp_Happy.exp3.json"
			},
			{
				"Name": "Exp_Happy02",
				"File": "Exp_Happy02.exp3.json"
			},
			{
				"Name": "Exp_Mischievous",
				"File": "Exp_Mischievous.exp3.json"
			},
			{
				"Name": "Exp_Sad",
				"File": "Exp_Sad.exp3.json"
			},
			{
				"Name": "Exp_Smug",
				"File": "Exp_Smug.exp3.json"
			},
			{
				"Name": "Exp_Surprise",
				"File": "Exp_Surprise.exp3.json"
			},
			{
				"Name": "Exp_Psycho",
				"File": "Exp_Psycho.exp3.json"
			},
			{
				"Name": "Exp_Tired",
				"File": "Exp_Tired.exp3.json"
			},
			{
				"Name": "Exp_Wut",
				"File": "Exp_Wut.exp3.json"
			},
			{
				"Name": "Exp_Shy",
				"File": "Exp_Shy.exp3.json"
			},
			{
				"Name": "Eye_Closed",
				"File": "Eye_Closed.exp3.json"
			},
			{
				"Name": "Eye_Default",
				"File": "Eye_Default.exp3.json"
			},
			{
				"Name": "Eye_HalfClosed",
				"File": "Eye_HalfClosed.exp3.json"
			},
			{
				"Name": "Eye_Highlights",
				"File": "Eye_Highlights.exp3.json"
			},
			{
				"Name": "Eye_LookAtLeft",
				"File": "Eye_LookAtLeft.exp3.json"
			},
			{
				"Name": "Eye_LookAtRight",
				"File": "Eye_LookAtRight.exp3.json"
			},
			{
				"Name": "Eye_LookDown",
				"File": "Eye_LookDown.exp3.json"
			},
			{
				"Name": "Eye_LookUp",
				"File": "Eye_LookUp.exp3.json"
			},
			{
				"Name": "Eye_SmallEyeball",
				"File": "Eye_SmallEyeball.exp3.json"
			},
			{
				"Name": "Eye_Surprised",
				"File": "Eye_Surprised.exp3.json"
			},
			{
				"Name": "FX_Blush",
				"File": "FX_Blush.exp3.json"
			},
			{
				"Name": "FX_Default",
				"File": "FX_Default.exp3.json"
			},
			{
				"Name": "FX_EyeHearts",
				"File": "FX_EyeHearts.exp3.json"
			},
			{
				"Name": "FX_EyeStars",
				"File": "FX_EyeStars.exp3.json"
			},
			{
				"Name": "FX_FaceShadow",
				"File": "FX_FaceShadow.exp3.json"
			},
			{
				"Name": "FX_Tired",
				"File": "FX_Tired.exp3.json"
			},
			{
				"Name": "Mouth_Default",
				"File": "Mouth_Default.exp3.json"
			},
			{
				"Name": "Mouth_Annoyed",
				"File": "Mouth_Annoyed.exp3.json"
			},
			{
				"Name": "Mouth_Annoyed02",
				"File": "Mouth_Annoyed02.exp3.json"
			},
			{
				"Name": "Mouth_Annoyed03",
				"File": "Mouth_Annoyed03.exp3.json"
			},
			{
				"Name": "Mouth_Happy",
				"File": "Mouth_Happy.exp3.json"
			},
			{
				"Name": "Mouth_Open",
				"File": "Mouth_Open.exp3.json"
			},
			{
				"Name": "Mouth_Open02",
				"File": "Mouth_Open02.exp3.json"
			},
			{
				"Name": "Mouth_Open03",
				"File": "Mouth_Open03.exp3.json"
			},
			{
				"Name": "Mouth_Open04",
				"File": "Mouth_Open04.exp3.json"
			},
			{
				"Name": "Mouth_Open05",
				"File": "Mouth_Open05.exp3.json"
			},
			{
				"Name": "Mouth_Sad",
				"File": "Mouth_Sad.exp3.json"
			},
			{
				"Name": "Mouth_Smile",
				"File": "Mouth_Smile.exp3.json"
			},
			{
				"Name": "Mouth_Smug",
				"File": "Mouth_Smug.exp3.json"
			},
			{
				"Name": "FX_Hat",
				"File": "FX_Hat.exp3.json"
			}
		]
	},
	"Groups": [
		{
			"Target": "Parameter",
			"Name": "LipSync",
			"Ids": []
		},
		{
			"Target": "Parameter",
			"Name": "EyeBlink",
			"Ids": []
		}
	],
	"HitAreas": []
}