{
"autoplayBgm":false,"autoplayBgs":false,"battleback1Name":"","battleback2Name":"","bgm":{"name":"","pan":0,"pitch":100,"volume":90},"bgs":{"name":"","pan":0,"pitch":100,"volume":90},"disableDashing":false,"displayName":"","encounterList":[],"encounterStep":30,"height":20,"note":"","parallaxLoopX":false,"parallaxLoopY":false,"parallaxName":"","parallaxShow":true,"parallaxSx":0,"parallaxSy":0,"scrollType":0,"specifyBattleback":false,"tilesetId":6,"width":30,
"data":[0,0,0,0,3264,3272,1554,1554,1554,1554,1554,3264,3272,0,0,0,0,0,7032,7020,7020,7020,7030,0,0,0,0,0,0,0,0,0,0,0,3264,3272,1554,1554,1554,1554,1554,3264,3272,0,0,0,0,0,0,0,0,0,0,0,0,0,0,0,0,0,0,0,0,0,3264,3272,1554,1554,1554,1554,1554,3264,3272,0,0,0,0,0,0,0,0,0,0,0,0,0,0,0,0,0,0,0,0,0,3264,3272,1554,1554,1554,1554,1554,3264,3272,0,0,0,0,0,0,0,0,0,0,0,0,2899,2897,2901,0,0,0,0,0,0,3264,3272,1554,1554,1554,1554,1554,3264,3272,0,0,0,0,0,0,0,0,0,0,0,0,2896,2570,2896,0,0,0,0,0,0,3264,3272,1554,1554,1554,1554,1554,3264,3272,0,0,0,0,0,0,0,0,0,0,0,0,2896,2572,2896,0,0,0,0,0,0,3264,3272,1554,1554,1554,1554,1554,3264,3272,0,0,0,0,0,0,0,1599,1599,0,0,0,2905,2887,2903,0,0,0,0,0,0,3264,3272,1554,1554,1554,1554,1554,3264,3272,0,0,0,0,0,0,0,2906,3294,0,0,0,0,2896,0,0,0,0,4051,4049,4061,3264,3272,1554,1554,1554,1554,1554,3264,3272,0,0,0,0,0,0,0,2883,2897,2897,2897,2897,2897,2903,0,0,0,4037,4055,0,0,3264,3272,1554,1554,1554,1554,1554,3264,3272,0,0,0,0,0,0,0,2896,3294,0,0,0,0,0,0,0,0,4054,0,0,0,3264,3272,1554,1554,1554,1554,1554,3264,3272,0,0,0,0,0,0,0,2908,0,0,0,0,0,0,0,0,0,3268,3268,3268,3268,3249,3272,1554,1554,1554,1554,1554,3264,3250,3268,3268,3268,3268,3268,3268,3268,3268,3268,3268,3268,3268,3268,3268,3268,3268,3268,3276,3276,3276,3276,3276,3286,1554,1554,1554,1554,1554,3288,3276,3276,3276,3276,3276,3276,3276,3276,3276,3276,3276,3276,3276,3276,3276,3276,3276,3276,1554,1554,1554,1554,1554,1554,1554,1554,1554,1554,1554,1554,1554,1554,1554,1554,1554,1554,1554,1554,1554,1554,1554,1554,1554,1554,1554,1554,1554,1554,1554,1555,1554,1554,1554,1554,1554,1554,1554,1554,1554,1554,1554,1554,1554,1554,1554,1554,1554,1554,1554,1554,1554,1554,1554,1554,1554,1554,1554,1554,1554,1554,1554,1554,1554,1554,1554,1554,1554,1554,1554,1554,1554,1554,1554,1554,1554,1554,1554,1554,1554,1554,1554,1554,1554,1554,1554,1554,1554,1554,1554,1554,1554,1554,1554,1554,1554,1554,1554,1554,1554,1554,1554,1554,1554,1554,1554,1554,1554,1554,1554,1554,1554,1554,1554,1554,1554,1554,1554,1554,1554,1554,1554,1554,1554,1554,1554,1554,1554,1554,1554,1554,1554,1554,1554,1554,1554,1554,1554,1554,1554,1554,1554,1554,1554,1554,1554,1554,1554,1554,3268,3268,3268,3268,3268,3284,1554,1554,1554,1554,1554,3282,3268,3268,3268,3268,3268,3268,3268,3268,3268,3268,3268,3268,3268,3268,3268,3268,3268,3268,3248,3248,3248,3248,3248,3272,1554,1554,1554,1554,1554,3264,3248,3248,3248,3248,3248,3248,3248,3248,3248,3248,3248,3248,3248,3248,3248,3248,3248,3248,4256,4256,4256,4280,0,1015,0,0,0,0,0,1013,0,4272,4256,4256,4256,4280,0,0,0,0,0,4272,4256,4256,4256,4256,4256,4256,4256,4256,4256,4280,0,1015,0,0,0,0,0,1013,0,4272,4256,4256,4256,4258,4276,4276,4276,4276,4276,4257,4256,4256,4256,4256,4256,4256,4256,4256,4256,4280,0,1015,0,0,0,0,0,1013,0,4272,4256,4256,4256,4256,4256,4256,4256,4256,4256,4256,4260,4284,4284,4284,4264,4256,4256,4256,4256,4280,0,1015,0,0,0,0,0,1013,0,4272,4256,4256,4256,4256,4256,4256,4256,4256,4256,4256,4280,0,0,0,4272,4256,4256,4256,4256,4280,0,1015,0,0,0,0,0,1013,0,4272,4256,4256,4256,4256,4256,4256,4256,4256,4256,4256,4280,0,0,0,4272,4256,4256,4256,4256,4280,0,1015,0,0,0,0,0,1013,0,4272,4256,4256,4256,4256,4256,4260,4284,4264,4256,4256,4280,0,0,0,4272,4256,4256,4256,4256,4280,0,1015,0,0,0,0,0,1013,0,4272,4256,4256,4256,4256,4256,4280,0,4272,4256,4256,4280,0,0,0,4272,4256,4260,4284,4284,4294,0,1015,0,0,0,0,0,1013,0,4272,4256,4256,4256,4256,4256,4280,0,4296,4284,4284,4286,4301,0,4290,4257,4256,4294,0,0,0,0,1015,0,0,0,0,0,1013,0,4272,4256,4256,4256,4256,4256,4280,0,0,0,0,0,0,0,4272,4256,4256,0,0,4290,4292,0,1015,0,0,0,0,0,1013,0,4272,4256,4256,4256,4256,4256,4280,0,4290,4276,4276,4276,4276,4276,4257,4256,4256,0,4299,4285,4294,0,1015,0,0,0,0,0,1013,0,4296,4284,4284,4284,4284,4284,4294,0,4296,4284,4284,4284,4284,4284,4284,4284,4284,0,0,0,0,0,0,0,0,0,0,0,0,0,0,0,0,0,0,0,0,0,0,0,0,0,0,0,0,0,0,1006,1006,0,1006,0,0,0,0,0,0,0,0,0,422,423,1006,1006,1006,0,1006,1006,1006,0,1006,1006,1006,0,1006,1006,0,0,0,0,0,0,0,0,0,0,0,0,0,0,0,0,0,0,0,0,0,0,0,0,0,0,0,0,0,0,0,0,0,0,0,0,0,0,0,0,0,0,0,0,0,0,0,0,0,0,0,0,0,0,0,0,0,0,0,0,0,0,0,0,0,0,0,0,0,0,0,0,0,0,0,0,0,0,0,0,0,0,0,0,0,0,0,0,0,0,0,0,0,0,0,0,0,0,0,0,0,0,0,0,0,0,0,0,0,0,0,0,0,0,0,0,0,0,0,0,0,0,0,1006,1006,0,0,0,0,0,0,0,0,0,0,0,1006,1006,1006,1006,1006,1006,1006,1006,1006,1006,1006,1006,1006,1006,1006,0,0,0,0,0,0,0,0,0,0,0,0,0,422,423,0,0,0,0,0,0,0,0,0,0,0,0,0,0,0,0,0,0,0,0,0,0,0,0,0,0,0,0,0,0,0,0,0,0,0,0,0,0,0,0,0,0,0,0,0,902,903,0,1015,0,0,0,0,0,0,0,0,0,1013,0,0,1620,1620,0,0,0,0,0,1620,1620,0,0,1015,0,0,0,0,0,1015,0,0,0,0,0,0,0,0,0,1013,0,0,1620,1620,1620,1620,1620,1620,1620,1620,1620,0,0,1015,0,0,0,0,913,1015,0,0,0,0,0,0,0,0,0,1013,0,0,1620,1620,1620,1620,1620,1620,1620,1620,1620,0,0,1015,0,0,0,0,921,1015,0,0,0,0,0,0,0,0,0,1013,0,0,918,918,918,918,918,918,918,918,918,0,0,0,921,922,0,0,0,1015,0,0,0,0,0,0,0,0,0,1013,0,0,0,0,0,735,0,140,735,732,733,0,0,1015,0,0,0,0,0,1015,0,0,0,0,0,0,0,0,0,1013,0,412,0,0,0,0,743,743,743,740,741,0,0,1015,0,0,0,0,0,1015,0,0,0,0,0,0,0,0,0,1013,0,0,0,0,0,751,751,751,751,748,749,0,0,0,921,922,0,0,0,1015,0,0,0,0,0,0,0,0,0,1013,0,0,0,0,0,0,0,0,0,0,0,0,0,1015,0,0,0,0,0,0,0,0,0,0,0,0,0,0,0,1013,0,834,0,0,0,0,0,0,0,0,0,0,0,1015,0,0,0,0,1014,1015,0,0,0,0,0,0,0,0,0,1013,0,0,0,0,0,0,0,0,0,0,0,0,0,1015,0,0,0,0,0,0,0,0,0,0,0,0,0,0,0,1022,0,0,0,0,0,0,0,0,0,0,0,0,0,1021,0,0,0,0,0,0,0,0,0,0,0,0,0,0,0,0,0,0,0,0,0,0,0,0,0,0,0,0,0,0,0,0,0,0,0,0,0,0,0,0,0,0,0,0,0,0,0,0,0,0,0,0,0,0,0,0,0,0,0,0,0,0,109,0,0,0,0,0,0,0,0,0,0,0,0,0,0,0,0,0,0,0,0,0,0,0,0,0,0,0,0,0,117,0,0,0,0,0,0,0,0,0,0,0,0,0,0,0,0,0,0,0,0,0,0,0,0,0,0,0,0,0,0,0,0,0,0,0,0,0,0,0,0,0,0,0,0,0,0,0,0,0,0,0,0,0,0,0,0,0,0,0,0,0,0,0,0,0,0,0,0,0,0,0,0,0,0,0,0,0,0,0,0,0,0,0,0,0,0,0,0,0,0,0,0,0,0,0,0,0,0,0,0,0,0,0,0,0,0,0,0,0,0,0,0,0,0,0,0,0,0,0,0,0,0,0,0,0,0,0,0,0,0,0,0,0,0,0,0,0,0,0,0,0,0,0,0,0,0,0,0,0,0,0,0,0,0,0,0,0,0,0,0,0,0,0,0,427,427,0,0,0,0,0,0,0,0,0,0,0,0,0,411,411,897,898,0,342,0,0,288,0,0,342,0,776,777,778,6960,6944,0,0,0,0,0,6944,6968,784,785,786,897,898,910,911,905,906,678,350,0,0,288,0,0,350,0,784,785,786,6960,6944,6944,6944,6944,6944,6944,6944,6968,792,793,794,905,906,918,919,869,914,686,0,0,0,288,0,0,0,0,792,793,794,6984,6972,6972,6972,6972,6972,6972,6972,6982,800,801,802,913,914,926,927,877,922,678,0,0,0,288,0,0,447,0,800,801,802,465,465,465,465,465,465,465,465,465,144,0,1015,897,898,934,935,897,898,686,342,0,0,288,0,0,342,0,1013,386,411,732,733,734,140,735,735,732,733,734,0,0,147,905,906,942,943,905,906,0,350,0,0,288,0,0,350,0,776,777,778,740,741,742,743,950,133,740,741,742,130,0,147,913,914,950,951,913,914,0,447,0,0,288,0,0,0,0,784,785,786,748,749,750,394,958,394,748,749,750,776,777,778,897,898,958,959,921,922,0,342,0,0,288,0,0,342,0,792,793,794,144,144,0,402,0,402,410,410,410,784,785,786,905,906,966,967,453,454,0,350,0,0,288,0,0,350,0,832,833,146,0,250,0,0,0,0,0,0,0,792,793,794,913,914,0,0,389,412,0,298,0,0,288,0,0,298,0,0,0,0,0,0,0,389,0,412,0,0,0,800,801,802,921,922,0,1022,1022,1023,0,306,0,0,288,0,0,306,0,1021,1023,1021,1022,1023,1021,1022,0,1021,1022,1023,1021,1022,1023,1023,1022,1023,0,0,342,0,0,0,300,300,300,300,300,0,0,0,342,0,0,0,342,0,0,0,342,0,0,0,342,0,0,0,0,0,350,0,0,0,300,300,300,300,300,0,0,0,350,0,0,0,350,0,0,0,350,0,0,0,350,0,0,1022,452,107,421,0,308,308,0,0,0,0,0,308,308,0,0,0,0,0,0,0,0,0,0,0,0,0,0,0,0,0,460,0,421,0,308,308,0,0,0,0,0,308,308,0,0,0,0,0,0,0,0,0,0,0,0,0,0,0,0,0,296,296,296,296,308,308,0,0,0,0,0,308,308,296,296,296,296,296,296,296,296,296,296,296,296,296,296,296,296,296,448,449,0,0,308,308,0,0,0,0,0,308,308,0,0,0,0,0,0,0,0,0,0,0,0,0,0,0,0,0,456,457,342,0,308,308,0,0,0,0,0,308,308,0,342,0,0,0,342,0,0,0,342,0,0,0,342,0,0,0,0,0,350,0,0,0,300,300,300,300,300,0,0,0,350,0,0,447,350,0,445,446,350,0,0,0,350,0,461,462,897,898,897,898,0,298,300,300,300,300,300,298,0,0,0,897,898,0,897,898,0,0,897,898,427,390,391,427,897,898,0,0,0,0,0,0,0,0,0,0,0,0,0,0,0,0,0,0,0,0,0,0,0,0,0,0,0,0,0,0,0,0,0,0,0,0,0,0,0,0,0,0,0,0,0,0,0,0,0,0,0,0,0,0,0,0,0,0,0,0,0,0,0,0,0,0,0,0,0,0,0,0,0,0,0,0,0,0,0,0,0,0,0,0,0,0,0,0,0,0,0,0,0,0,0,0,0,0,0,0,0,0,0,0,0,0,0,0,0,0,0,0,0,0,0,0,0,0,0,0,0,0,0,0,0,0,0,0,0,0,0,0,0,0,0,0,8,12,4,0,0,0,0,8,12,0,0,0,0,0,0,0,0,0,0,0,0,0,0,0,0,0,0,0,0,0,10,15,5,0,0,0,0,10,15,0,0,0,0,0,0,0,0,0,0,0,0,0,0,0,0,0,0,0,0,0,0,0,0,0,0,0,0,2,3,0,0,0,0,0,0,0,0,0,0,0,0,0,0,0,0,0,0,0,0,0,0,0,0,0,0,0,0,0,0,0,0,0,0,0,0,0,0,0,0,0,0,0,0,0,0,0,0,0,0,0,0,0,0,0,0,0,0,0,0,0,0,0,0,0,0,0,0,0,0,0,0,0,0,0,0,0,0,0,0,0,0,0,0,0,0,0,0,0,0,0,0,0,0,0,0,0,0,0,0,0,0,0,0,0,0,0,0,0,0,0,0,0,0,0,0,0,0,0,0,0,0,0,0,0,0,0,0,0,0,0,0,0,0,0,0,0,0,0,0,0,0,0,0,0,0,0,0,0,0,0,0,0,0,0,0,0,0,0,0,0,0,0,0,0,0,0,0,0,0,0,0,0,0,0,0,0,0,0,0,0,0,0,0,0,0,0,0,0,0,0,0,0,0,0,0,0,0,0,0,0,0,0,0,0,0,0,0,0,0,0,0,0,0,0,0,0,0,0,0,0,0,0,0,0,0,0,0,0,0,0,0,0,0,0,0,0,0,0,0,0,0,0,0,0,0,0,0,0,0,0,0,0,0,0,0,0,0,0,0,0,0,0,0,0,0,0,0,0,0,0,0,0,0,0,0,0,0,0,0,0,0,0,0,0,0,0,0,0,0,0,0,0,0,0,0,0,0,0,0,0,0,0,0,0,0,0,0,0,0,0,0,0,0,0,0,0,0,0,0,0,0,0,0,0,0,0,0,0,0,0,0,0,0,0,0,0,0,0,0,0,0,0,0,0,0,0,0,0,0,0,0,0,0,0,0,0,0,0,0,0,0,0,0,0,0,0,0,0,0,0,0,0,0,0,0,0,0,0,0,0,0,0,0,0,0,0,0,0,0,0,0,0,0,0,0,0,0,0,0,0,0,0,0,0,0,0,0,0,0,0,0,0,0,0,0,0,0,0,0,0,0,0,0,0,0,0,0,0,0,0,0,0,0,0,0,0,0,0,0,0,0,0,0,0,0,0,0,0,0,0,0,0,0,0,0,0,0,0,0,0,0,0,0,0,0,0,0,0,0,0,0,0,0,0,0,0,0,0,0,0,0,0,0,0,0,0,0,0,0,0,0,0,0,0,0,0,0,0,0,0,0,0,0,0,0,0,0,0,0,0,0,0,0,0,0,0,0,0,0,0,0,0,0,0,0,0,0,0,0,0,0,0,0,0,0,0,0,0,0,0,0,0,0,0,0,0,0,0,0,0,0,0,0,0,0,0,0,0,0,0,0,0,0,0,0,0,0,0,0,0,0,0,0,0,0,0,0,0,0,0,0,0,0,0,0,0,0,0,0,0,0,0,0,0,0,0,0,0,0,0,0,0,0,0,0,0,0,0,0,0,0,0,0,0,0,0,0,0,0,0,0,0,0,0,0,0,0,0,0,0,0,0,0,0,0,0,0,0,0,0,0,0,0,0,0,0,0,0,0,0,0,0,0,0,0,0,0,0,0,0,0,0,0,0,0,0,0,0,0,0,0,0,0,0,0,0,0,0,0,0,0,0,0,0,0,0,0,0,0,0,0,0,0,0,0,0,0,0,0,0,0,0,0,0,0,0,0,0,0,0,0,0,0,0,0,0,0,0,0,0,0,0,0,0,0,0,0,0,0,0,0,0,0,0,0,0,0,0,0,0,0,0,0,0,0,0,0,0,0,0,0,0,0,0,0,0,0,0,0,0,0,0,0,0,0,0,0,0,0,0,0,0,0,0,0,0,0,0,0,0,0,0,0,0,0,0,0,0,0,0,0,0,0,0,0,0,0,0,0,0,0,0,0,0,0,0,0,0,0,0,0,0,0,0,0,0,0,0,0,0,0,0,0,0,0,0,0,0,0,0,0,0,0,0,0,0,0,0,0,0,0,0,0,0,0,0,0,0,0,0,0,0,0,0,0,0,0,0,0,0,0,0,0,0,0,0,0,0,0,0,0,0,0,0,0,0,0,0,0,0,0,0,0,0,0,0,0,0,0,0,0,0,0,0,0,0,0,0,0,0,0,0,0,0,0,0,0,0,0,0,0,0,0,0,0,0,0,0,0,0,0,0,0,0,0,0,0,0,0,0,0,0,0,0,0,0,0,0,0,0,0,0,0,0,0,0,0,0,0,0,0,0,0,0,0,0,0,0,0,0,0,0,0,0,0,0,0,0,0,0,0,0,0,0,0,0,0,0,0,0,0,0,0,0,0,0,0,0,0,0,0,0,0,0],
"events":[
null,
{"id":1,"name":"Street Light","note":"","pages":[{"conditions":{"actorId":1,"actorValid":false,"itemId":1,"itemValid":false,"selfSwitchCh":"A","selfSwitchValid":false,"switch1Id":1,"switch1Valid":false,"switch2Id":1,"switch2Valid":false,"variableId":23,"variableValid":false,"variableValue":2},"directionFix":true,"image":{"tileId":0,"characterName":"!$Light 1","direction":6,"pattern":0,"characterIndex":0},"list":[{"code":0,"indent":0,"parameters":[]}],"moveFrequency":5,"moveRoute":{"list":[{"code":43,"parameters":[1],"indent":null},{"code":0,"parameters":[]}],"repeat":false,"skippable":false,"wait":false},"moveSpeed":6,"moveType":3,"priorityType":2,"stepAnime":true,"through":true,"trigger":0,"walkAnime":false}],"x":2,"y":12},
{"id":2,"name":"Street Light","note":"","pages":[{"conditions":{"actorId":1,"actorValid":false,"itemId":1,"itemValid":false,"selfSwitchCh":"A","selfSwitchValid":false,"switch1Id":1,"switch1Valid":false,"switch2Id":1,"switch2Valid":false,"variableId":23,"variableValid":false,"variableValue":2},"directionFix":true,"image":{"tileId":0,"characterName":"!$Light 1","direction":6,"pattern":0,"characterIndex":0},"list":[{"code":0,"indent":0,"parameters":[]}],"moveFrequency":5,"moveRoute":{"list":[{"code":43,"parameters":[1],"indent":null},{"code":0,"parameters":[]}],"repeat":false,"skippable":false,"wait":false},"moveSpeed":6,"moveType":3,"priorityType":2,"stepAnime":true,"through":true,"trigger":0,"walkAnime":false}],"x":2,"y":18},
{"id":3,"name":"Street Light","note":"","pages":[{"conditions":{"actorId":1,"actorValid":false,"itemId":1,"itemValid":false,"selfSwitchCh":"A","selfSwitchValid":false,"switch1Id":1,"switch1Valid":false,"switch2Id":1,"switch2Valid":false,"variableId":23,"variableValid":false,"variableValue":2},"directionFix":true,"image":{"tileId":0,"characterName":"!$Light 1","direction":6,"pattern":0,"characterIndex":0},"list":[{"code":0,"indent":0,"parameters":[]}],"moveFrequency":5,"moveRoute":{"list":[{"code":43,"parameters":[1],"indent":null},{"code":0,"parameters":[]}],"repeat":false,"skippable":false,"wait":false},"moveSpeed":6,"moveType":3,"priorityType":2,"stepAnime":true,"through":true,"trigger":0,"walkAnime":false}],"x":5,"y":8},
{"id":4,"name":"Street Light","note":"","pages":[{"conditions":{"actorId":1,"actorValid":false,"itemId":1,"itemValid":false,"selfSwitchCh":"A","selfSwitchValid":false,"switch1Id":1,"switch1Valid":false,"switch2Id":1,"switch2Valid":false,"variableId":23,"variableValid":false,"variableValue":2},"directionFix":true,"image":{"tileId":0,"characterName":"!$Light 1","direction":6,"pattern":0,"characterIndex":0},"list":[{"code":0,"indent":0,"parameters":[]}],"moveFrequency":5,"moveRoute":{"list":[{"code":43,"parameters":[1],"indent":null},{"code":0,"parameters":[]}],"repeat":false,"skippable":false,"wait":false},"moveSpeed":6,"moveType":3,"priorityType":2,"stepAnime":true,"through":true,"trigger":0,"walkAnime":false}],"x":5,"y":5},
{"id":5,"name":"Street Light","note":"","pages":[{"conditions":{"actorId":1,"actorValid":false,"itemId":1,"itemValid":false,"selfSwitchCh":"A","selfSwitchValid":false,"switch1Id":1,"switch1Valid":false,"switch2Id":1,"switch2Valid":false,"variableId":23,"variableValid":false,"variableValue":2},"directionFix":true,"image":{"tileId":0,"characterName":"!$Light 1","direction":6,"pattern":0,"characterIndex":0},"list":[{"code":0,"indent":0,"parameters":[]}],"moveFrequency":5,"moveRoute":{"list":[{"code":43,"parameters":[1],"indent":null},{"code":0,"parameters":[]}],"repeat":false,"skippable":false,"wait":false},"moveSpeed":6,"moveType":3,"priorityType":2,"stepAnime":true,"through":true,"trigger":0,"walkAnime":false}],"x":5,"y":1},
{"id":6,"name":"Street Light","note":"","pages":[{"conditions":{"actorId":1,"actorValid":false,"itemId":1,"itemValid":false,"selfSwitchCh":"A","selfSwitchValid":false,"switch1Id":1,"switch1Valid":false,"switch2Id":1,"switch2Valid":false,"variableId":23,"variableValid":false,"variableValue":2},"directionFix":true,"image":{"tileId":0,"characterName":"!$Light 1","direction":6,"pattern":0,"characterIndex":0},"list":[{"code":0,"indent":0,"parameters":[]}],"moveFrequency":5,"moveRoute":{"list":[{"code":43,"parameters":[1],"indent":null},{"code":0,"parameters":[]}],"repeat":false,"skippable":false,"wait":false},"moveSpeed":6,"moveType":3,"priorityType":2,"stepAnime":true,"through":true,"trigger":0,"walkAnime":false}],"x":11,"y":1},
{"id":7,"name":"Street Light","note":"","pages":[{"conditions":{"actorId":1,"actorValid":false,"itemId":1,"itemValid":false,"selfSwitchCh":"A","selfSwitchValid":false,"switch1Id":1,"switch1Valid":false,"switch2Id":1,"switch2Valid":false,"variableId":23,"variableValid":false,"variableValue":2},"directionFix":true,"image":{"tileId":0,"characterName":"!$Light 1","direction":6,"pattern":0,"characterIndex":0},"list":[{"code":0,"indent":0,"parameters":[]}],"moveFrequency":5,"moveRoute":{"list":[{"code":43,"parameters":[1],"indent":null},{"code":0,"parameters":[]}],"repeat":false,"skippable":false,"wait":false},"moveSpeed":6,"moveType":3,"priorityType":2,"stepAnime":true,"through":true,"trigger":0,"walkAnime":false}],"x":11,"y":5},
{"id":8,"name":"Street Light","note":"","pages":[{"conditions":{"actorId":1,"actorValid":false,"itemId":1,"itemValid":false,"selfSwitchCh":"A","selfSwitchValid":false,"switch1Id":1,"switch1Valid":false,"switch2Id":1,"switch2Valid":false,"variableId":23,"variableValid":false,"variableValue":2},"directionFix":true,"image":{"tileId":0,"characterName":"!$Light 1","direction":6,"pattern":0,"characterIndex":0},"list":[{"code":0,"indent":0,"parameters":[]}],"moveFrequency":5,"moveRoute":{"list":[{"code":43,"parameters":[1],"indent":null},{"code":0,"parameters":[]}],"repeat":false,"skippable":false,"wait":false},"moveSpeed":6,"moveType":3,"priorityType":2,"stepAnime":true,"through":true,"trigger":0,"walkAnime":false}],"x":11,"y":8},
{"id":9,"name":"Street Light","note":"","pages":[{"conditions":{"actorId":1,"actorValid":false,"itemId":1,"itemValid":false,"selfSwitchCh":"A","selfSwitchValid":false,"switch1Id":1,"switch1Valid":false,"switch2Id":1,"switch2Valid":false,"variableId":23,"variableValid":false,"variableValue":2},"directionFix":true,"image":{"tileId":0,"characterName":"!$Light 1","direction":6,"pattern":0,"characterIndex":0},"list":[{"code":0,"indent":0,"parameters":[]}],"moveFrequency":5,"moveRoute":{"list":[{"code":43,"parameters":[1],"indent":null},{"code":0,"parameters":[]}],"repeat":false,"skippable":false,"wait":false},"moveSpeed":6,"moveType":3,"priorityType":2,"stepAnime":true,"through":true,"trigger":0,"walkAnime":false}],"x":14,"y":12},
{"id":10,"name":"Street Light","note":"","pages":[{"conditions":{"actorId":1,"actorValid":false,"itemId":1,"itemValid":false,"selfSwitchCh":"A","selfSwitchValid":false,"switch1Id":1,"switch1Valid":false,"switch2Id":1,"switch2Valid":false,"variableId":23,"variableValid":false,"variableValue":2},"directionFix":true,"image":{"tileId":0,"characterName":"!$Light 1","direction":6,"pattern":0,"characterIndex":0},"list":[{"code":0,"indent":0,"parameters":[]}],"moveFrequency":5,"moveRoute":{"list":[{"code":43,"parameters":[1],"indent":null},{"code":0,"parameters":[]}],"repeat":false,"skippable":false,"wait":false},"moveSpeed":6,"moveType":3,"priorityType":2,"stepAnime":true,"through":true,"trigger":0,"walkAnime":false}],"x":14,"y":18},
{"id":11,"name":"Street Light","note":"","pages":[{"conditions":{"actorId":1,"actorValid":false,"itemId":1,"itemValid":false,"selfSwitchCh":"A","selfSwitchValid":false,"switch1Id":1,"switch1Valid":false,"switch2Id":1,"switch2Valid":false,"variableId":23,"variableValid":false,"variableValue":2},"directionFix":true,"image":{"tileId":0,"characterName":"!$Light 1","direction":6,"pattern":0,"characterIndex":0},"list":[{"code":0,"indent":0,"parameters":[]}],"moveFrequency":5,"moveRoute":{"list":[{"code":43,"parameters":[1],"indent":null},{"code":0,"parameters":[]}],"repeat":false,"skippable":false,"wait":false},"moveSpeed":6,"moveType":3,"priorityType":2,"stepAnime":true,"through":true,"trigger":0,"walkAnime":false}],"x":18,"y":18},
{"id":12,"name":"Street Light","note":"","pages":[{"conditions":{"actorId":1,"actorValid":false,"itemId":1,"itemValid":false,"selfSwitchCh":"A","selfSwitchValid":false,"switch1Id":1,"switch1Valid":false,"switch2Id":1,"switch2Valid":false,"variableId":23,"variableValid":false,"variableValue":2},"directionFix":true,"image":{"tileId":0,"characterName":"!$Light 1","direction":6,"pattern":0,"characterIndex":0},"list":[{"code":0,"indent":0,"parameters":[]}],"moveFrequency":5,"moveRoute":{"list":[{"code":43,"parameters":[1],"indent":null},{"code":0,"parameters":[]}],"repeat":false,"skippable":false,"wait":false},"moveSpeed":6,"moveType":3,"priorityType":2,"stepAnime":true,"through":true,"trigger":0,"walkAnime":false}],"x":18,"y":12},
{"id":13,"name":"Street Light","note":"","pages":[{"conditions":{"actorId":1,"actorValid":false,"itemId":1,"itemValid":false,"selfSwitchCh":"A","selfSwitchValid":false,"switch1Id":1,"switch1Valid":false,"switch2Id":1,"switch2Valid":false,"variableId":23,"variableValid":false,"variableValue":2},"directionFix":true,"image":{"tileId":0,"characterName":"!$Light 1","direction":6,"pattern":0,"characterIndex":0},"list":[{"code":0,"indent":0,"parameters":[]}],"moveFrequency":5,"moveRoute":{"list":[{"code":43,"parameters":[1],"indent":null},{"code":0,"parameters":[]}],"repeat":false,"skippable":false,"wait":false},"moveSpeed":6,"moveType":3,"priorityType":2,"stepAnime":true,"through":true,"trigger":0,"walkAnime":false}],"x":22,"y":12},
{"id":14,"name":"Street Light","note":"","pages":[{"conditions":{"actorId":1,"actorValid":false,"itemId":1,"itemValid":false,"selfSwitchCh":"A","selfSwitchValid":false,"switch1Id":1,"switch1Valid":false,"switch2Id":1,"switch2Valid":false,"variableId":23,"variableValid":false,"variableValue":2},"directionFix":true,"image":{"tileId":0,"characterName":"!$Light 1","direction":6,"pattern":0,"characterIndex":0},"list":[{"code":0,"indent":0,"parameters":[]}],"moveFrequency":5,"moveRoute":{"list":[{"code":43,"parameters":[1],"indent":null},{"code":0,"parameters":[]}],"repeat":false,"skippable":false,"wait":false},"moveSpeed":6,"moveType":3,"priorityType":2,"stepAnime":true,"through":true,"trigger":0,"walkAnime":false}],"x":22,"y":18},
{"id":15,"name":"Street Light","note":"","pages":[{"conditions":{"actorId":1,"actorValid":false,"itemId":1,"itemValid":false,"selfSwitchCh":"A","selfSwitchValid":false,"switch1Id":1,"switch1Valid":false,"switch2Id":1,"switch2Valid":false,"variableId":23,"variableValid":false,"variableValue":2},"directionFix":true,"image":{"tileId":0,"characterName":"!$Light 1","direction":6,"pattern":0,"characterIndex":0},"list":[{"code":0,"indent":0,"parameters":[]}],"moveFrequency":5,"moveRoute":{"list":[{"code":43,"parameters":[1],"indent":null},{"code":0,"parameters":[]}],"repeat":false,"skippable":false,"wait":false},"moveSpeed":6,"moveType":3,"priorityType":2,"stepAnime":true,"through":true,"trigger":0,"walkAnime":false}],"x":26,"y":12},
{"id":16,"name":"Street Light","note":"","pages":[{"conditions":{"actorId":1,"actorValid":false,"itemId":1,"itemValid":false,"selfSwitchCh":"A","selfSwitchValid":false,"switch1Id":1,"switch1Valid":false,"switch2Id":1,"switch2Valid":false,"variableId":23,"variableValid":false,"variableValue":2},"directionFix":true,"image":{"tileId":0,"characterName":"!$Light 1","direction":6,"pattern":0,"characterIndex":0},"list":[{"code":0,"indent":0,"parameters":[]}],"moveFrequency":5,"moveRoute":{"list":[{"code":43,"parameters":[1],"indent":null},{"code":0,"parameters":[]}],"repeat":false,"skippable":false,"wait":false},"moveSpeed":6,"moveType":3,"priorityType":2,"stepAnime":true,"through":true,"trigger":0,"walkAnime":false}],"x":26,"y":18},
{"id":17,"name":"NPC","note":"","pages":[{"conditions":{"actorId":1,"actorValid":false,"itemId":1,"itemValid":false,"selfSwitchCh":"A","selfSwitchValid":false,"switch1Id":1,"switch1Valid":false,"switch2Id":1,"switch2Valid":false,"variableId":1,"variableValid":false,"variableValue":0},"directionFix":false,"image":{"tileId":0,"characterName":"SF_Actor3","direction":4,"pattern":1,"characterIndex":3},"list":[{"code":0,"indent":0,"parameters":[]}],"moveFrequency":3,"moveRoute":{"list":[{"code":0,"parameters":[]}],"repeat":true,"skippable":false,"wait":false},"moveSpeed":3,"moveType":0,"priorityType":1,"stepAnime":false,"through":false,"trigger":0,"walkAnime":true}],"x":21,"y":19},
{"id":18,"name":"NPC","note":"","pages":[{"conditions":{"actorId":1,"actorValid":false,"itemId":1,"itemValid":false,"selfSwitchCh":"A","selfSwitchValid":false,"switch1Id":1,"switch1Valid":false,"switch2Id":1,"switch2Valid":false,"variableId":1,"variableValid":false,"variableValue":0},"directionFix":false,"image":{"tileId":0,"characterName":"SF_People2","direction":6,"pattern":1,"characterIndex":4},"list":[{"code":0,"indent":0,"parameters":[]}],"moveFrequency":3,"moveRoute":{"list":[{"code":0,"parameters":[]}],"repeat":true,"skippable":false,"wait":false},"moveSpeed":3,"moveType":0,"priorityType":1,"stepAnime":false,"through":false,"trigger":0,"walkAnime":true}],"x":20,"y":19},
null,
null,
null,
null,
null,
null,
null,
{"id":26,"name":"Hana","note":"","pages":[{"conditions":{"actorId":1,"actorValid":false,"itemId":1,"itemValid":false,"selfSwitchCh":"A","selfSwitchValid":false,"switch1Id":21,"switch1Valid":false,"switch2Id":21,"switch2Valid":false,"variableId":1,"variableValid":false,"variableValue":0},"directionFix":false,"image":{"tileId":0,"characterName":"Actor2","direction":2,"pattern":1,"characterIndex":1},"list":[{"code":0,"indent":0,"parameters":[]}],"moveFrequency":3,"moveRoute":{"list":[{"code":0,"parameters":[]}],"repeat":true,"skippable":false,"wait":false},"moveSpeed":4,"moveType":0,"priorityType":1,"stepAnime":false,"through":false,"trigger":3,"walkAnime":true}],"x":0,"y":18},
null,
null,
null,
null,
null,
null,
null,
null,
null,
null,
null,
null,
null,
null,
{"id":41,"name":"Prologue","note":"","pages":[{"conditions":{"actorId":1,"actorValid":false,"itemId":1,"itemValid":false,"selfSwitchCh":"A","selfSwitchValid":false,"switch1Id":1,"switch1Valid":false,"switch2Id":1,"switch2Valid":false,"variableId":1,"variableValid":false,"variableValue":0},"directionFix":false,"image":{"tileId":0,"characterName":"SF_Actor1","direction":2,"pattern":1,"characterIndex":0},"list":[{"code":121,"indent":0,"parameters":[27,27,0]},{"code":223,"indent":0,"parameters":[[17,-34,-34,0],60,false]},{"code":357,"indent":0,"parameters":["VisuMZ_1_MessageCore","MessageWindowProperties","Message: Properties",{"Rows:num":"4","Width:num":"1000","WordWrap:str":"No Change"}]},{"code":657,"indent":0,"parameters":["Rows = 4"]},{"code":657,"indent":0,"parameters":["Width = 1000"]},{"code":657,"indent":0,"parameters":["Word Wrap = No Change"]},{"code":357,"indent":0,"parameters":["VisuMZ_1_MessageCore","MessageWindowXyOffsets","Message: X/Y Offsets",{"OffsetX:eval":"100","OffsetY:eval":"35"}]},{"code":657,"indent":0,"parameters":["Offset X = 100"]},{"code":657,"indent":0,"parameters":["Offset Y = 35"]},{"code":205,"indent":0,"parameters":[26,{"list":[{"code":37,"indent":null},{"code":1,"indent":null},{"code":3,"indent":null},{"code":3,"indent":null},{"code":3,"indent":null},{"code":3,"indent":null},{"code":4,"indent":null},{"code":4,"indent":null},{"code":4,"indent":null},{"code":4,"indent":null},{"code":4,"indent":null},{"code":4,"indent":null},{"code":4,"indent":null},{"code":3,"indent":null},{"code":0}],"repeat":false,"skippable":false,"wait":false}]},{"code":505,"indent":0,"parameters":[{"code":37,"indent":null}]},{"code":505,"indent":0,"parameters":[{"code":1,"indent":null}]},{"code":505,"indent":0,"parameters":[{"code":3,"indent":null}]},{"code":505,"indent":0,"parameters":[{"code":3,"indent":null}]},{"code":505,"indent":0,"parameters":[{"code":3,"indent":null}]},{"code":505,"indent":0,"parameters":[{"code":3,"indent":null}]},{"code":505,"indent":0,"parameters":[{"code":4,"indent":null}]},{"code":505,"indent":0,"parameters":[{"code":4,"indent":null}]},{"code":505,"indent":0,"parameters":[{"code":4,"indent":null}]},{"code":505,"indent":0,"parameters":[{"code":4,"indent":null}]},{"code":505,"indent":0,"parameters":[{"code":4,"indent":null}]},{"code":505,"indent":0,"parameters":[{"code":4,"indent":null}]},{"code":505,"indent":0,"parameters":[{"code":4,"indent":null}]},{"code":505,"indent":0,"parameters":[{"code":3,"indent":null}]},{"code":205,"indent":0,"parameters":[0,{"list":[{"code":37,"indent":null},{"code":1,"indent":null},{"code":3,"indent":null},{"code":3,"indent":null},{"code":3,"indent":null},{"code":3,"indent":null},{"code":4,"indent":null},{"code":4,"indent":null},{"code":4,"indent":null},{"code":4,"indent":null},{"code":4,"indent":null},{"code":4,"indent":null},{"code":4,"indent":null},{"code":4,"indent":null},{"code":18,"indent":null},{"code":0}],"repeat":false,"skippable":false,"wait":true}]},{"code":505,"indent":0,"parameters":[{"code":37,"indent":null}]},{"code":505,"indent":0,"parameters":[{"code":1,"indent":null}]},{"code":505,"indent":0,"parameters":[{"code":3,"indent":null}]},{"code":505,"indent":0,"parameters":[{"code":3,"indent":null}]},{"code":505,"indent":0,"parameters":[{"code":3,"indent":null}]},{"code":505,"indent":0,"parameters":[{"code":3,"indent":null}]},{"code":505,"indent":0,"parameters":[{"code":4,"indent":null}]},{"code":505,"indent":0,"parameters":[{"code":4,"indent":null}]},{"code":505,"indent":0,"parameters":[{"code":4,"indent":null}]},{"code":505,"indent":0,"parameters":[{"code":4,"indent":null}]},{"code":505,"indent":0,"parameters":[{"code":4,"indent":null}]},{"code":505,"indent":0,"parameters":[{"code":4,"indent":null}]},{"code":505,"indent":0,"parameters":[{"code":4,"indent":null}]},{"code":505,"indent":0,"parameters":[{"code":4,"indent":null}]},{"code":505,"indent":0,"parameters":[{"code":18,"indent":null}]},{"code":231,"indent":0,"parameters":[80,"Textbox2",0,0,0,0,65,65,255,0]},{"code":101,"indent":0,"parameters":["",0,2,2,"\\HexColor<#ffffff>\\OutlineHexColor<#731696>\\OutlineWidth[3]\\n[1]"]},{"code":401,"indent":0,"parameters":["\\HexColor<#ffffff>\\OutlineHexColor<#731696>\\OutlineWidth[3]\"Which direction do we go from here?\""]},{"code":101,"indent":0,"parameters":["",0,2,2,"\\HexColor<#ffffff>\\OutlineHexColor<#731696>\\OutlineWidth[3]Hana"]},{"code":401,"indent":0,"parameters":["\\HexColor<#ffffff>\\OutlineHexColor<#731696>\\OutlineWidth[3]\"I think the market square is the most exciting place to check out. You have "]},{"code":401,"indent":0,"parameters":["to take the road east from here.\""]},{"code":101,"indent":0,"parameters":["",0,2,2,"\\HexColor<#ffffff>\\OutlineHexColor<#731696>\\OutlineWidth[3]\\n[1]"]},{"code":401,"indent":0,"parameters":["\\HexColor<#ffffff>\\OutlineHexColor<#731696>\\OutlineWidth[3]\"Roger that.\""]},{"code":235,"indent":0,"parameters":[80]},{"code":204,"indent":0,"parameters":[8,5,3,false]},{"code":204,"indent":0,"parameters":[6,8,3,false]},{"code":205,"indent":0,"parameters":[26,{"list":[{"code":37,"indent":null},{"code":4,"indent":null},{"code":3,"indent":null},{"code":3,"indent":null},{"code":3,"indent":null},{"code":3,"indent":null},{"code":3,"indent":null},{"code":3,"indent":null},{"code":3,"indent":null},{"code":3,"indent":null},{"code":3,"indent":null},{"code":3,"indent":null},{"code":3,"indent":null},{"code":3,"indent":null},{"code":3,"indent":null},{"code":3,"indent":null},{"code":3,"indent":null},{"code":3,"indent":null},{"code":3,"indent":null},{"code":3,"indent":null},{"code":3,"indent":null},{"code":3,"indent":null},{"code":3,"indent":null},{"code":3,"indent":null},{"code":3,"indent":null},{"code":42,"parameters":[0],"indent":null},{"code":0}],"repeat":false,"skippable":false,"wait":false}]},{"code":505,"indent":0,"parameters":[{"code":37,"indent":null}]},{"code":505,"indent":0,"parameters":[{"code":4,"indent":null}]},{"code":505,"indent":0,"parameters":[{"code":3,"indent":null}]},{"code":505,"indent":0,"parameters":[{"code":3,"indent":null}]},{"code":505,"indent":0,"parameters":[{"code":3,"indent":null}]},{"code":505,"indent":0,"parameters":[{"code":3,"indent":null}]},{"code":505,"indent":0,"parameters":[{"code":3,"indent":null}]},{"code":505,"indent":0,"parameters":[{"code":3,"indent":null}]},{"code":505,"indent":0,"parameters":[{"code":3,"indent":null}]},{"code":505,"indent":0,"parameters":[{"code":3,"indent":null}]},{"code":505,"indent":0,"parameters":[{"code":3,"indent":null}]},{"code":505,"indent":0,"parameters":[{"code":3,"indent":null}]},{"code":505,"indent":0,"parameters":[{"code":3,"indent":null}]},{"code":505,"indent":0,"parameters":[{"code":3,"indent":null}]},{"code":505,"indent":0,"parameters":[{"code":3,"indent":null}]},{"code":505,"indent":0,"parameters":[{"code":3,"indent":null}]},{"code":505,"indent":0,"parameters":[{"code":3,"indent":null}]},{"code":505,"indent":0,"parameters":[{"code":3,"indent":null}]},{"code":505,"indent":0,"parameters":[{"code":3,"indent":null}]},{"code":505,"indent":0,"parameters":[{"code":3,"indent":null}]},{"code":505,"indent":0,"parameters":[{"code":3,"indent":null}]},{"code":505,"indent":0,"parameters":[{"code":3,"indent":null}]},{"code":505,"indent":0,"parameters":[{"code":3,"indent":null}]},{"code":505,"indent":0,"parameters":[{"code":3,"indent":null}]},{"code":505,"indent":0,"parameters":[{"code":3,"indent":null}]},{"code":505,"indent":0,"parameters":[{"code":42,"parameters":[0],"indent":null}]},{"code":205,"indent":0,"parameters":[0,{"list":[{"code":37,"indent":null},{"code":3,"indent":null},{"code":3,"indent":null},{"code":3,"indent":null},{"code":3,"indent":null},{"code":3,"indent":null},{"code":3,"indent":null},{"code":3,"indent":null},{"code":3,"indent":null},{"code":3,"indent":null},{"code":3,"indent":null},{"code":3,"indent":null},{"code":3,"indent":null},{"code":3,"indent":null},{"code":3,"indent":null},{"code":3,"indent":null},{"code":3,"indent":null},{"code":3,"indent":null},{"code":3,"indent":null},{"code":3,"indent":null},{"code":3,"indent":null},{"code":3,"indent":null},{"code":3,"indent":null},{"code":3,"indent":null},{"code":3,"indent":null},{"code":42,"parameters":[0],"indent":null},{"code":0}],"repeat":false,"skippable":false,"wait":true}]},{"code":505,"indent":0,"parameters":[{"code":37,"indent":null}]},{"code":505,"indent":0,"parameters":[{"code":3,"indent":null}]},{"code":505,"indent":0,"parameters":[{"code":3,"indent":null}]},{"code":505,"indent":0,"parameters":[{"code":3,"indent":null}]},{"code":505,"indent":0,"parameters":[{"code":3,"indent":null}]},{"code":505,"indent":0,"parameters":[{"code":3,"indent":null}]},{"code":505,"indent":0,"parameters":[{"code":3,"indent":null}]},{"code":505,"indent":0,"parameters":[{"code":3,"indent":null}]},{"code":505,"indent":0,"parameters":[{"code":3,"indent":null}]},{"code":505,"indent":0,"parameters":[{"code":3,"indent":null}]},{"code":505,"indent":0,"parameters":[{"code":3,"indent":null}]},{"code":505,"indent":0,"parameters":[{"code":3,"indent":null}]},{"code":505,"indent":0,"parameters":[{"code":3,"indent":null}]},{"code":505,"indent":0,"parameters":[{"code":3,"indent":null}]},{"code":505,"indent":0,"parameters":[{"code":3,"indent":null}]},{"code":505,"indent":0,"parameters":[{"code":3,"indent":null}]},{"code":505,"indent":0,"parameters":[{"code":3,"indent":null}]},{"code":505,"indent":0,"parameters":[{"code":3,"indent":null}]},{"code":505,"indent":0,"parameters":[{"code":3,"indent":null}]},{"code":505,"indent":0,"parameters":[{"code":3,"indent":null}]},{"code":505,"indent":0,"parameters":[{"code":3,"indent":null}]},{"code":505,"indent":0,"parameters":[{"code":3,"indent":null}]},{"code":505,"indent":0,"parameters":[{"code":3,"indent":null}]},{"code":505,"indent":0,"parameters":[{"code":3,"indent":null}]},{"code":505,"indent":0,"parameters":[{"code":3,"indent":null}]},{"code":505,"indent":0,"parameters":[{"code":42,"parameters":[0],"indent":null}]},{"code":201,"indent":0,"parameters":[0,20,0,9,0,0]},{"code":0,"indent":0,"parameters":[]}],"moveFrequency":3,"moveRoute":{"list":[{"code":0,"parameters":[]}],"repeat":true,"skippable":false,"wait":false},"moveSpeed":4,"moveType":0,"priorityType":1,"stepAnime":false,"through":false,"trigger":3,"walkAnime":true}],"x":1,"y":18}
]
}