{
"autoplayBgm":false,"autoplayBgs":false,"battleback1Name":"","battleback2Name":"","bgm":{"name":"","pan":0,"pitch":100,"volume":90},"bgs":{"name":"","pan":0,"pitch":100,"volume":90},"disableDashing":false,"displayName":"","encounterList":[],"encounterStep":30,"height":60,"note":"","parallaxLoopX":false,"parallaxLoopY":false,"parallaxName":"","parallaxShow":true,"parallaxSx":0,"parallaxSy":0,"scrollType":0,"specifyBattleback":false,"tilesetId":1,"width":20,
"data":[0,0,0,0,0,0,0,0,0,0,0,0,0,0,0,0,0,0,0,0,0,0,0,0,0,0,0,0,0,0,0,0,0,0,0,0,0,0,0,0,0,0,0,0,0,0,0,0,0,0,0,0,0,0,0,0,0,0,0,0,0,0,0,0,0,0,0,0,0,0,0,0,0,0,0,0,0,0,0,0,0,0,3627,3607,3617,3617,3607,3617,3606,3604,3604,3605,3617,3607,3617,3617,3607,3629,0,0,0,0,0,3616,0,0,3616,0,3600,3584,3584,3608,0,3616,0,0,3616,0,0,0,0,0,0,3616,0,0,3616,0,3600,3584,3584,3608,0,3616,0,0,3616,0,0,0,0,0,3627,3611,0,0,3625,3617,3593,3584,3584,3590,3617,3623,0,0,3603,3629,0,0,0,0,0,3616,0,0,0,0,3600,3584,3584,3608,0,0,0,0,3616,0,0,0,0,0,0,3601,3604,3620,0,0,3600,3584,3584,3608,0,0,3618,3604,3610,0,0,0,0,0,3627,3613,3612,3614,3617,3617,3613,3592,3588,3614,3617,3617,3613,3612,3614,3629,0,0,0,0,0,0,0,0,0,0,0,3600,3608,0,0,0,0,0,0,0,0,0,0,0,0,0,0,0,0,0,0,3600,3608,0,0,0,0,0,0,0,0,0,0,0,0,0,0,0,0,0,0,3600,3608,0,0,0,0,0,0,0,0,0,0,0,0,3626,0,0,0,0,3618,3585,3586,3620,0,0,0,0,0,0,0,0,0,0,0,3601,3604,3604,3620,0,3600,3584,3584,3608,0,3618,3604,3620,0,0,0,0,0,0,0,3600,3584,3584,3590,3617,3593,3584,3584,3590,3617,3593,3584,3586,3604,3620,0,0,0,0,0,3600,3584,3584,3608,0,3600,3584,3584,3608,0,3624,3592,3584,3588,3622,0,0,0,0,3619,3613,3612,3612,3622,0,3600,3584,3584,3608,0,0,3600,3588,3622,0,0,0,0,0,3628,0,0,0,0,0,3600,3584,3584,3608,0,0,3624,3622,0,0,0,0,0,0,0,0,0,0,0,0,3600,3584,3584,3608,0,0,0,0,0,0,0,0,0,0,0,0,0,0,0,0,3600,3584,3584,3608,0,0,0,0,0,0,0,0,0,0,0,0,0,0,0,0,3600,3584,3584,3608,0,0,0,0,0,0,0,0,0,0,0,0,0,0,0,0,3600,3584,3584,3608,0,0,0,0,0,0,0,0,0,0,3627,3617,3617,3617,3617,3617,3593,3584,3584,3608,0,3619,3617,3617,3606,3620,0,0,0,0,0,0,0,0,0,0,3600,3584,3584,3590,3617,3611,0,0,3600,3586,3620,0,0,0,0,0,0,0,0,0,3600,3584,3584,3608,0,3616,0,0,3600,3588,3622,0,0,0,0,0,0,0,0,0,3600,3584,3584,3608,0,3625,3607,3617,3597,3622,0,0,0,0,0,3618,3620,0,0,0,3600,3584,3584,3608,0,0,3616,0,3616,0,0,0,0,0,3627,3613,3614,3617,3617,3617,3613,3592,3588,3622,0,0,3628,0,3628,0,0,0,0,0,0,0,0,0,0,0,0,3600,3608,0,0,0,0,0,0,0,0,0,0,0,0,0,0,0,0,0,0,3600,3608,0,0,0,0,0,0,0,0,0,0,0,0,0,0,0,0,0,0,3600,3608,0,0,0,0,0,0,0,0,0,0,0,0,0,0,0,0,0,3618,3585,3608,0,0,0,0,0,0,0,0,0,0,0,3627,3606,3605,3617,3617,3617,3593,3588,3614,3617,3617,3617,3607,3617,3617,3629,0,0,0,0,0,3602,3622,0,0,0,3600,3608,0,0,0,0,3616,0,0,0,0,0,0,0,0,3616,0,0,0,0,3600,3608,0,0,0,0,3601,3604,3604,3620,0,0,0,0,0,3601,3605,3617,3617,3617,3593,3608,0,0,0,0,3602,3612,3612,3622,0,0,0,0,0,3600,3608,0,0,0,3600,3586,3604,3604,3604,3604,3610,0,0,0,0,0,0,0,3627,3613,3614,3617,3617,3617,3593,3584,3584,3584,3584,3584,3608,0,0,0,0,0,0,0,0,0,0,0,0,0,3600,3584,3584,3588,3612,3612,3622,0,0,0,0,0,0,0,0,0,0,0,0,0,3624,3592,3588,3622,0,0,0,0,0,0,0,0,0,0,0,0,0,0,0,0,0,3600,3608,0,0,0,0,0,0,0,0,0,0,0,0,0,0,0,0,0,0,3600,3608,0,0,0,0,0,0,0,0,0,0,0,3619,3617,3617,3617,3606,3604,3604,3585,3586,3605,3617,3617,3606,3604,3620,0,0,0,0,0,3616,0,0,0,3600,3588,3612,3612,3612,3609,0,0,3624,3612,3614,3629,0,0,0,0,3603,3617,3617,3617,3593,3608,0,0,0,3601,3604,3620,0,0,0,0,0,0,0,0,3616,0,0,0,3600,3586,3604,3604,3604,3585,3584,3586,3604,3604,3604,3620,0,0,0,0,3601,3604,3604,3604,3585,3584,3584,3584,3584,3584,3584,3584,3584,3588,3612,3622,0,0,0,0,3600,3584,3584,3584,3584,3584,3584,3584,3584,3584,3584,3584,3584,3608,0,0,0,0,0,0,3600,3584,3584,3584,3584,3584,3584,3584,3584,3584,3584,3584,3584,3608,0,0,0,0,3604,3604,3585,3584,3584,3584,3584,3584,3584,3584,3584,3584,3584,3584,3584,3586,3604,3604,3604,3604,3584,3584,3584,3584,3584,3584,3584,3584,3584,3584,3584,3584,3584,3584,3584,3584,3584,3584,3584,3584,3612,3612,3592,3584,3584,3584,3584,3584,3584,3584,3584,3584,3584,3584,3584,3584,3584,3588,3612,3612,0,0,3600,3584,3584,3584,3584,3584,3584,3584,3584,3584,3584,3584,3584,3584,3584,3608,0,0,0,0,3624,3612,3612,3612,3612,3612,3612,3612,3612,3612,3612,3612,3612,3612,3612,3622,0,0,0,0,0,0,0,0,0,0,0,0,0,0,0,0,0,0,0,0,0,0,0,0,0,0,0,0,0,0,0,0,0,0,0,0,0,0,0,0,0,0,0,0,0,0,0,0,0,0,0,0,0,0,0,0,0,0,0,0,0,0,0,0,0,0,0,0,0,0,0,0,0,0,0,0,0,0,0,0,0,0,0,0,0,0,0,0,0,0,0,0,0,0,0,0,0,0,0,0,0,0,0,0,0,0,0,0,0,0,0,0,0,0,0,0,0,0,0,0,0,0,0,0,0,0,0,0,0,0,0,0,0,0,0,0,0,0,0,0,0,0,0,0,0,0,0,0,0,0,0,0,0,0,0,0,0,0,0,0,0,0,0,0,0,0,0,0,0,0,0,0,0,0,0,0,0,0,0,0,0,0,0,0,0,0,0,0,0,0,0,0,0,0,0,0,0,0,0,0,0,0,0,0,0,0,0,0,0,0,0,0,0,0,0,0,0,0,0,0,0,0,0,0,0,0,0,0,0,0,0,0,0,0,0,0,0,0,0,0,0,0,0,0,0,0,0,0,0,0,0,0,0,0,0,0,0,0,0,0,0,0,0,0,0,0,0,0,0,0,0,0,0,0,0,0,0,0,0,0,0,0,0,0,0,0,0,0,0,0,0,0,0,0,0,0,0,0,0,0,0,0,0,0,0,0,0,0,0,0,0,0,0,0,0,0,0,0,0,0,0,0,0,0,0,0,0,0,0,0,0,0,0,0,0,0,0,0,0,0,0,0,0,0,0,0,0,0,0,0,0,0,0,0,0,0,0,0,0,0,0,0,0,0,0,0,0,0,0,0,0,0,0,0,0,0,0,0,0,0,0,0,0,0,0,0,0,0,0,0,0,0,0,0,0,0,0,0,0,0,0,0,0,0,0,0,0,0,0,0,0,0,0,0,0,0,0,0,0,0,0,0,0,0,0,0,0,0,0,0,0,0,0,0,0,0,0,0,0,0,0,0,0,0,0,0,0,0,0,0,0,0,0,0,0,0,0,0,0,0,0,0,0,0,0,0,0,0,0,0,0,0,0,0,0,0,0,0,0,0,0,0,0,0,0,0,0,0,0,0,0,0,0,0,0,0,0,0,0,0,0,0,0,0,0,0,0,0,0,0,0,0,0,0,0,0,0,0,0,0,0,0,0,0,0,0,0,0,0,0,0,0,0,0,0,0,0,0,0,0,0,0,0,0,0,0,0,0,0,0,0,0,0,0,0,0,0,0,0,0,0,0,0,0,0,0,0,0,0,0,0,0,0,0,0,0,0,0,0,0,0,0,0,0,0,0,0,0,0,0,0,0,0,0,0,0,0,0,0,0,0,0,0,0,0,0,0,0,0,0,0,0,0,0,0,0,0,0,0,0,0,0,0,0,0,0,0,0,0,0,0,0,0,0,0,0,0,0,0,0,0,0,0,0,0,0,0,0,0,0,0,0,0,0,0,0,0,0,0,0,0,0,0,0,0,0,0,0,0,0,0,0,0,0,0,0,0,0,0,0,0,0,0,0,0,0,0,0,0,0,0,0,0,0,0,0,0,0,0,0,0,0,0,0,0,0,0,0,0,0,0,0,0,0,0,0,0,0,0,0,0,0,0,0,0,0,0,0,0,0,0,0,0,0,0,0,0,0,0,0,0,0,0,0,0,0,0,0,0,0,0,0,0,0,0,0,0,0,0,0,0,0,0,0,0,0,0,0,0,0,0,0,0,0,0,0,0,0,0,0,0,0,0,0,0,0,0,0,0,0,0,0,0,0,0,0,0,0,0,0,0,0,0,0,0,0,0,0,0,0,0,0,0,0,0,0,0,0,0,0,0,0,0,0,0,0,0,0,0,0,0,0,0,0,0,0,0,0,0,0,0,0,0,0,0,0,0,0,0,0,0,0,0,0,0,0,0,0,0,0,0,0,0,0,0,0,0,0,0,0,0,0,0,0,0,0,0,0,0,0,0,0,0,0,0,0,0,0,0,0,0,0,0,0,0,0,0,0,0,0,0,0,0,0,0,0,0,0,0,0,0,0,0,0,0,0,0,0,0,0,0,0,0,0,0,0,0,0,0,0,0,0,0,0,0,0,0,0,0,0,0,0,0,0,0,0,0,0,0,0,0,0,0,0,0,0,0,0,0,0,0,0,0,0,0,0,0,0,0,0,0,0,0,0,0,0,0,0,0,0,0,0,0,0,0,0,0,0,0,0,0,0,0,0,0,0,0,0,0,0,0,0,0,0,0,0,0,0,0,0,0,0,0,0,0,0,0,0,0,0,0,0,0,0,0,0,0,0,0,0,0,0,0,0,0,0,0,0,0,0,0,0,0,0,0,0,0,0,0,0,0,0,0,0,0,0,0,0,0,0,0,0,0,0,0,0,0,0,0,0,0,0,0,0,0,0,0,0,0,0,0,0,0,0,0,0,0,0,0,0,0,0,0,0,0,0,0,0,0,0,0,0,0,0,0,0,0,0,0,0,0,0,0,0,0,0,0,0,0,0,0,0,0,0,0,0,0,0,0,0,0,0,0,0,0,0,0,0,0,0,0,0,0,0,0,0,0,0,0,0,0,0,0,0,0,0,0,0,0,0,0,0,0,0,0,0,0,0,0,0,0,0,0,0,0,0,0,0,0,0,0,0,0,0,0,0,0,0,0,0,0,0,0,0,0,0,0,0,0,0,0,0,0,0,0,0,0,0,0,0,0,0,0,0,0,0,0,0,0,0,0,0,0,0,0,0,0,0,0,0,0,0,0,0,0,0,0,0,0,0,0,0,0,0,0,0,0,0,0,0,0,0,0,0,0,0,0,0,0,0,0,0,0,0,0,0,0,0,0,0,0,0,0,0,0,0,0,0,0,0,0,0,0,0,0,0,0,0,0,0,0,0,0,0,0,0,0,0,0,0,0,0,0,0,0,0,0,0,0,0,0,0,0,0,0,0,0,0,0,0,0,0,0,0,0,0,0,0,0,0,0,0,0,0,0,0,0,0,0,0,0,0,0,0,0,0,0,0,0,0,0,0,0,0,0,0,0,0,0,0,0,0,0,0,0,0,0,0,0,0,0,0,0,0,0,0,0,0,0,0,0,0,0,0,0,0,0,0,0,0,0,0,0,0,0,0,0,0,0,0,0,0,0,0,0,0,0,0,0,0,0,0,0,0,0,0,0,0,0,0,0,0,0,0,0,0,0,0,0,0,0,0,0,0,0,0,0,0,0,0,0,0,0,0,0,0,0,0,0,0,0,0,0,0,0,0,0,0,0,0,0,0,0,0,0,0,0,0,0,0,0,0,0,0,0,0,0,0,0,0,0,0,0,0,0,0,0,0,0,0,0,0,0,0,0,0,0,0,0,0,0,0,0,0,0,0,0,0,0,0,0,0,0,0,0,0,0,0,0,0,0,0,0,0,0,0,0,0,0,0,0,0,0,0,0,0,0,0,0,0,0,0,0,0,0,0,0,0,0,0,0,0,0,0,0,0,0,0,0,0,0,0,0,0,0,0,0,0,0,0,0,0,0,0,0,0,0,0,0,0,0,0,0,0,0,0,0,0,0,0,0,0,0,0,0,0,0,0,0,0,0,0,0,0,0,0,0,0,0,0,0,0,0,0,0,0,0,0,0,0,0,0,0,0,0,0,0,0,0,0,0,0,0,0,0,0,0,0,0,0,0,0,0,0,0,0,0,0,0,0,0,0,0,0,0,0,0,0,0,0,0,0,0,0,0,0,0,0,0,0,0,0,0,0,0,0,0,0,0,0,0,0,0,0,0,0,0,0,0,0,0,0,0,0,0,0,0,0,0,0,0,0,0,0,0,0,0,0,0,0,0,0,0,0,0,0,0,0,0,0,0,0,0,0,0,0,0,0,0,0,0,0,0,0,0,0,0,0,0,0,0,0,0,0,0,0,0,0,0,0,0,0,0,0,0,0,0,0,0,0,0,0,0,0,0,0,0,0,0,0,0,0,0,0,0,0,0,0,0,0,0,0,0,0,0,0,0,0,0,0,0,0,0,0,0,0,0,0,0,0,0,0,0,0,0,0,0,0,0,0,0,0,0,0,0,0,0,0,0,0,0,0,0,0,0,0,0,0,0,0,0,0,0,0,0,0,0,0,0,0,0,0,0,0,0,0,0,0,0,0,0,0,0,0,0,0,0,0,0,0,0,0,0,0,0,0,0,0,0,0,0,0,0,0,0,0,0,0,0,0,0,0,0,0,0,0,0,0,0,0,0,0,0,0,0,0,0,0,0,0,0,0,0,0,0,0,0,0,0,0,0,0,0,0,0,0,0,0,0,0,0,0,0,0,0,0,0,0,0,0,0,0,0,0,0,0,0,0,0,0,0,0,0,0,0,0,0,0,0,0,0,0,0,0,0,0,0,0,0,0,0,0,0,0,0,0,0,0,0,0,0,0,0,0,0,0,0,0,0,0,0,0,0,0,0,0,0,0,0,0,0,0,0,0,0,0,0,0,0,0,0,0,0,0,0,0,0,0,0,0,0,0,0,0,0,0,0,0,0,0,0,0,0,0,0,0,0,0,0,0,0,0,0,0,0,0,0,0,0,0,0,0,0,0,0,0,0,0,0,0,0,0,0,0,0,0,0,0,0,0,0,0,0,0,0,0,0,0,0,0,0,0,0,0,0,0,0,0,0,0,0,0,0,0,0,0,0,0,0,0,0,0,0,0,0,0,0,0,0,0,0,0,0,0,0,0,0,0,0,0,0,0,0,0,0,0,0,0,0,0,0,0,0,0,0,0,0,0,0,0,0,0,0,0,0,0,0,0,0,0,0,0,0,0,0,0,0,0,0,0,0,0,0,0,0,0,0,0,0,0,0,0,0,0,0,0,0,0,0,0,0,0,0,0,0,0,0,0,0,0,0,0,0,0,0,0,0,0,0,0,0,0,0,0,0,0,0,0,0,0,0,0,0,0,0,0,0,0,0,0,0,0,0,0,0,0,0,0,0,0,0,0,0,0,0,0,0,0,0,0,0,0,0,0,0,0,0,0,0,0,0,0,0,0,0,0,0,0,0,0,0,0,0,0,0,0,0,0,0,0,0,0,0,0,0,0,0,0,0,0,0,0,0,0,0,0,0,0,0,0,0,0,0,0,0,0,0,0,0,0,0,0,0,0,0,0,0,0,0,0,0,0,0,0,0,0,0,0,0,0,0,0,0,0,0,0,0,0,0,0,0,0,0,0,0,0,0,0,0,0,0,0,0,0,0,0,0,0,0,0,0,0,0,0,0,0,0,0,0,0,0,0,0,0,0,0,0,0,0,0,0,0,0,0,0,0,0,0,0,0,0,0,0,0,0,0,0,0,0,0,0,0,0,0,0,0,0,0,0,0,0,0,0,0,0,0,0,0,0,0,0,0,0,0,0,0,0,0,0,0,0,0,0,0,0,0,0,0,0,0,0,0,0,0,0,0,0,0,0,0,0,0,0,0,0,0,0,0,0,0,0,0,0,0,0,0,0,0,0,0,0,0,0,0,0,0,0,0,0,0,0,0,0,0,0,0,0,0,0,0,0,0,0,0,0,0,0,0,0,0,0,0,0,0,0,0,0,0,0,0,0,0,0,0,0,0,0,0,0,0,0,0,0,0,0,0,0,0,0,0,0,0,0,0,0,0,0,0,0,0,0,0,0,0,0,0,0,0,0,0,0,0,0,0,0,0,0,0,0,0,0,0,0,0,0,0,0,0,0,0,0,0,0,0,0,0,0,0,0,0,0,0,0,0,0,0,0,0,0,0,0,0,0,0,0,0,0,0,0,0,0,0,0,0,0,0,0,0,0,0,0,0,0,0,0,0,0,0,0,0,0,0,0,0,0,0,0,0,0,0,0,0,0,0,0,0,0,0,0,0,0,0,0,0,0,0,0,0,0,0,0,0,0,0,0,0,0,0,0,0,0,0,0,0,0,0,0,0,0,0,0,0,0,0,0,0,0,0,0,0,0,0,0,0,0,0,0,0,0,0,0,0,0,0,0,0,0,0,0,0,0,0,0,0,0,0,0,0,0,0,0,0,0,0,0,0,0,0,0,0,0,0,0,0,0,0,0,0,0,0,0,0,0,0,0,0,0,0,0,0,0,0,0,0,0,0,0,0,0,0,0,0,0,0,0,0,0,0,0,0,0,0,0,0,0,0,0,0,0,0,0,0,0,0,0,0,0,0,0,0,0,0,0,0,0,0,0,0,0,0,0,0,0,0,0,0,0,0,0,0,0,0,0,0,0,0,0,0,0,0,0,0,0,0,0,0,0,0,0,0,0,0,0,0,0,0,0,0,0,0,0,0,0,0,0,0,0,0,0,0,0,0,0,0,0,0,0,0,0,0,0,0,0,0,0,0,0,0,0,0,0,0,0,0,0,0,0,0,0,0,0,0,0,0,0,0,0,0,0,0,0,0,0,0,0,0,0,0,0,0,0,0,0,0,0,0,0,0,0,0,0,0,0,0,0,0,0,0,0,0,0,0,0,0,0,0,0,0,0,0,0,0,0,0,0,0,0,0,0,0,0,0,0,0,0,0,0,0,0,0,0,0,0,0,0,0,0,0,0,0,0,0,0,0,0,0,0,0,0,0,0,0,0,0,0,0,0,0,0,0,0,0,0,0,0,0,0,0,0,0,0,0,0,0,0,0,0,0,0,0,0,0,0,0,0,0,0,0,0,0,0,0,0,0,0,0,0,0,0,0,0,0,0,0,0,0,0,0,0,0,0,0,0,0,0,0,0,0,0,0,0,0,0,0,0,0,0,0,0,0,0,0,0,0,0,0,0,0,0,0,0,0,0,0,0,0,0,0,0,0,0,0,0,0,0,0,0,0,0,0,0,0,0,0,0,0,0,0,0,0,0,0,0,0,0,0,0,0,0,0,0,0,0,0,0,0,0,0,0,0,0,0,0,0,0,0,0,0,0,0,0,0,0,0,0,0,0,0,0,0,0,0,0,0,0,0,0,0,0,0,0,0,0,0,0,0,0,0,0,0,0,0,0,0,0,0,0,0,0,0,0,0,0,0,0,0,0,0,0,0,0,0,0,0,0,0,0,0,0,0,0,0,0,0,0,0,0,0,0,0,0,0,0,0,0,0,0,0,0,0,0,0,0,0,0,0,0,0,0,0,0,0,0,0,0,0,0,0,0,0,0,0,0,0,0,0,0,0,0,0,0,0,0,0,0,0,0,0,0,0,0,0,0,0,0,0,0,0,0,0,0,0,0,0,0,0,0,0,0,0,0,0,0,0,0,0,0,0,0,0,0,0,0,0,0,0,0,0,0,0,0,0,0,0,0,0,0,0,0,0,0,0,0,0,0,0,0,0,0,0,0,0,0,0,0,0,0,0,0,0,0,0,0,0,0,0,0,0,0,0,0,0,0,0,0,0,0,0,0,0,0,0,0,0,0,0,0,0,0,0,0,0,0,0,0,0,0,0,0,0,0,0,0,0,0,0,0,0,0,0,0,0,0,0,0,0,0,0,0,0,0,0,0,0,0,0,0,0,0,0,0,0,0,0,0,0,0,0,0,0,0,0,0,0,0,0,0,0,0,0,0,0,0,0,0,0,0,0,0,0,0,0,0,0,0,0,0,0,0,0,0,0,0,0,0,0,0,0,0,0,0,0,0,0,0,0,0,0,0,0,0,0,0,0,0,0,0,0,0,0,0,0,0,0,0,0,0,0,0,0,0,0,0,0,0,0,0,0,0,0,0,0,0,0,0,0,0,0,0,0,0,0,0,0,0,0,0,0,0,0,0,0,0,0,0,0,0,0,0,0,0,0,0,0,0,0,0,0,0,0,0,0,0,0,0,0,0,0,0,0,0,0,0,0,0,0,0,0,0,0,0,0,0,0,0,0,0,0,0,0,0,0,0,0,0,0,0,0,0,0,0,0,0,0,0,0,0,0,0,0,0,0,0,0,0,0,0,0,0,0,0,0,0,0,0,0,0,0,0,0,0,0,0,0,0,0,0,0,0,0,0,0,0,0,0,0,0,0,0,0,0,0,0,0,0,0,0,0,0,0,0,0,0,0,0,0,0,0,0,0,0,0,0,0,0,0,0,0,0,0,0,0,0,0,0,0,0,0,0,0,0,0,0,0,0,0,0,0,0,0,0,0,0,0,0,0,0,0,0,0,0,0,0,0,0,0,0,0,0,0,0,0,0,0,0,0,0,0,0,0,0,0,0,0,0,0,0,0,0,0,0,0,0,0,0,0,0,0,0,0,0,0,0,0,0,0,0,0,0,0,0,0,0,0,0,0,0,0,0,0,0,0,0,0,0,0,0,0,0,0,0,0,0,0,0,0,0,0,0,0,0,0,0,0,0,0,0,0,0,0,0,0,0,0,0,0,0,0,0,0,0,0,0,0,0,0,0,0,0,0,0,0,0,0,0,0,0,0,0,0,0,0,0,0,0,0,0,0,0,0,0,0,0,0,0,0,0,0,0,0,0,0,0,0,0,0,0,0,0,0,0,0,0,0,0,0,0,0,0,0,0,0,0,0,0,0,0,0,0,0,0,0,0,0,0,0,0,0,0,0,0,0,0,0,0,0,0,0,0,0,0,0,0,0,0,0,0,0,0,0,0,0,0,0,0,0,0,0,0,0,0,0,0,0,0,0,0,0,0,0,0,0,0,0,0,0,0,0,0,0,0,0,0,0,0,0,0,0,0,0,0,0,0,0,0,0,0,0,0,0,0,0,0,0,0,0,0,0,0,0,0,0,0,0,0,0,0,0,0,0,0,0,0,0,0,0,0,0,0,0,0,0,0,0,0,0,0,0,0,0,0,0,0,0,0,0,0,0,0,0,0,0,0,0,0,0,0,0,0,0,0,0,0,0,0,0,0,0,0,0,0,0,0,0,0,0,0,0,0,0,0,0,0,0,0,0,0,0,0,0,0,0,0,0,0,0,0,0,0,0,0,0,0,0,0,0,0,0,0,0,0,0,0,0,0,0,0,0,0,0,0,0,0,0,0,0,0,0,0,0,0,0,0,0,0,0,0,0,0,0,0,0,0,0,0,0,0,0,0,0,0,0,0,0,0,0,0,0,0,0,0,0,0,0,0,0,0,0,0,0,0,0,0,0,0,0,0,0,0,0,0,0,0,0,0,0,0,0,0,0,0,0,0,0,0,0,0,0,0,0,0,0,0,0,0,0,0,0,0,0,0,0,0,0,0,0,0,0,0,0,0,0,0,0,0,0,0,0,0,0,0,0,0,0,0,0,0,0,0,0,0,0,0,0,0,0,0,0,0,0,0,0,0,0,0,0,0,0,0,0,0,0,0,0,0,0,0,0,0,0,0,0,0,0,0,0,0,0,0,0,0,0,0,0,0,0,0,0,0,0,0,0,0,0,0,0,0,0,0,0,0,0,0,0,0,0,0,0,0,0,0,0,0,0,0,0,0,0,0,0,0,0,0,0,0,0,0,0,0,0,0,0,0,0,0,0,0,0,0,0,0,0,0,0,0,0,0,0,0,0,0,0,0,0,0,0,0,0,0,0,0,0,0,0,0,0,0,0,0,0,0,0,0,0,0,0,0,0,0,0,0,0,0,0,0,0,0,0,0,0,0,0,0,0,0,0,0,0,0,0,0,0,0,0,0,0,0,0,0,0,0,0,0,0,0,0,0,0,0,0,0,0,0,0,0,0,0,0,0,0,0,0,0,0,0,0,0,0,0,0,0,0,0,0,0,0,0,0,0,0,0,0,0,0,0,0,0,0,0,0,0,0,0,0,0,0,0,0,0,0,0,0,0,0,0,0,0,0,0,0,0,0,0,0,0,0,0,0,0,0,0,0,0,0,0,0,0,0,0,0,0,0,0,0,0,0,0,0,0,0,0,0,0,0,0,0,0,0,0,0,0,0,0,0,0,0,0,0,0,0,0,0,0,0,0,0,0,0,0,0,0,0,0,0,0,0,0,0,0,0,0,0,0,0,0,0,0,0,0,0,0,0,0,0,0,0,0,0,0,0,0,0,0,0,0,0,0,0,0,0,0,0,0,0,0,0,0,0,0,0,0,0,0,0,0,0,0,0,0,0,0,0,0,0,0,0,0,0,0,0,0,0,0,0,0,0,0,0,0,0,0,0,0,0,0,0,0,0,0,0,0,0,0,0,0,0,0,0,0,0,0,0,0,0,0,0,0,0,0,0,0,0,0,0,0,0,0,0,0,0,0,0,0,0,0,0,0,0,0,0,0,0,0,0,0,0,0,0,0,0,0,0,0,0,0,0,0,0,0,0,0,0,0,0,0,0,0,0,0,0,0,0,0,0,0,0,0,0,0,0,0,0,0,0,0,0,0,0,0,0,0,0,0,0,0,0,0,0,0,0,0,0,0,0,0,0,0,0,0,0,0,0,0,0,0,0,0,0,0,0,0,0,0,0,0,0,0,0,0,0,0,0,0,0,0,0,0,0,0,0,0,0,0,0,0,0,0,0,0,0,0,0,0,0,0,0,0,0,0,0,0,0,0,0,0,0,0,0,0,0,0,0,0,0,0,0,0,0,0,0,0,0,0,0,0,0,0,0,0,0,0,0,0,0,0,0,0,0,0,0,0,0,0,0,0,0,0,0,0,0,0,0,0,0,0,0,0,0,0,0,0,0,0,0,0,0,0,0,0,0,0,0,0,0,0,0,0,0,0,0,0,0,0,0,0,0,0,0,0,0,0,0,0,0,0,0,0,0,0,0,0,0,0,0,0,0,0,0,0,0,0,0,0,0,0,0,0,0,0,0,0,0,0,0,0,0,0,0,0,0,0,0,0,0,0,0,0,0,0,0,0,0,0,0,0,0,0,0,0,0,0,0,0,0,0,0,0,0,0,0,0,0,0,0,0,0,0,0,0,0,0,0,0,0,0,0,0,0,0,0,0,0,0,0,0,0,0,0,0,0,0,0,0,0,0,0,0,0,0,0,0,0,0,0,0,0,0,0,0,0,0,0,0,0,0,0,0,0,0,0,0,0,0,0,0,0,0,0,0,0,0,0,0,0,0,0,0,0,0,0,0,0,0,0,0,0,0,0,0,0,0,0,0,0,0,0,0,0,0,0,0,0,0,0,0,0,0,0,0,0,0,0,0,0,0,0,0,0,0,0,0,0,0,0,0,0,0,0,0,0,0,0,0,0,0,0,0,0,0,0,0,0,0,0,0,0,0,0,0,0,0,0,0,0,0,0,0,0,0,0,0,0,0,0,0,0,0,0,0,0,0,0,0,0,0,0,0,0,0,0,0,0,0,0,0,0,0,0,0,0,0,0,0,0,0,0,0,0,0,0,0,0,0,0,0,0,0,0,0,0,0,0,0,0,0,0,0,0,0,0,0,0,0,0,0,0,0,0,0,0,0,0,0,0,0,0,0,0,0,0,0,0,0,0,0,0,0,0,0,0,0,0,0,0,0,0,0,0,0,0,0,0,0,0,0,0,0,0,0,0,0,0,0,0,0,0,0,0,0,0,0,0,0,0,0,0,0,0,0,0,0,0,0,0,0,0,0,0,0,0,0,0,0,0,0,0,0,0,0,0,0,0,0,0,0,0,0,0,0,0,0,0,0,0,0,0,0,0,0,0,0,0,0,0,0,0,0,0,0,0,0,0,0,0,0,0,0,0,0,0,0,0,0,0,0,0,0,0,0,0,0,0,0,0,0,0,0,0,0,0,0,0,0,0,0,0,0,0,0,0,0,0,0,0,0,0,0,0,0,0,0,0,0,0,0,0,0,0,0,0,0,0,0,0,0,0,0,0,0,0,0,0,0,0,0,0,0,0,0,0,0,0,0,0,0,0,0,0,0,0,0,0,0,0,0,0,0,0,0,0,0,0,0,0,0,0,0,0,0,0,0,0,0,0,0,0,0,0,0,0,0,0,0,0,0,0,0,0,0,0,0,0,0,0,0,0,0,0,0,0,0,0,0,0,0,0,0,0,0,0,0,0,0,0,0,0,0,0,0,0,0,0,0,0,0,0,0,0,0,0,0,0,0,0,0,0,0,0,0,0,0,0,0,0,0,0,0,0,0,0,0,0,0,0,0,0,0,0,0,0,0,0,0,0,0,0,0,0,0,0,0,0,0,0,0,0,0,0,0,0,0,0,0,0,0,0,0,0,0,0,0,0,0,0,0,0,0,0,0,0,0,0,0,0,0,0,0,0,0,0,0,0,0,0,0,0,0,0,0,0,0,0,0,0,0,0,0,0,0,0,0,0,0,0,0,0,0,0,0,0,0,0,0,0,0,0,0,0,0,0,0,0,0,0,0,0,0,0,0,0,0,0,0,0,0,0,0,0,0,0,0,0,0,0,0,0,0,0,0,0,0,0,0,0,0,0,0,0,0,0,0,0,0,0,0,0,0,0,0,0,0,0,0,0,0,0,0,0,0,0,0,0,0,0,0,0,0,0,0,0,0,0,0,0,0,0,0,0,0,0,0,0,0,0,0,0,0,0,0,0,0,0,0,0,0,0,0,0,0,0,0,0,0,0,0,0,0,0,0,0,0,0,0,0,0,0,0,0,0,0,0,0,0,0,0,0,0,0,0,0,0,0,0,0,0,0,0,0,0,0,0,0,0,0,0,0,0,0,0,0,0,0,0,0,0,0,0,0,0,0,0,0,0,0,0,0,0,0,0,0,0,0,0,0,0,0,0,0,0,0,0,0,0,0,0,0,0,0,0,0,0,0,0,0,0,0,0,0,0,0,0,0,0,0,0,0,0,0,0,0,0,0,0,0,0,0,0,0,0,0,0,0,0,0,0,0,0,0,0,0,0,0,0,0,0,0,0,0,0,0,0,0,0,0,0,0,0,0,0,0,0,0,0,0,0,0,0,0,0,0,0,0,0,0,0,0,0,0,0,0,0,0,0,0,0,0,0,0,0,0,0,0,0,0,0,0,0,0,0,0,0,0,0,0,0,0,0,0,0,0,0,0,0,0,0,0,0,0,0,0,0,0,0,0,0,0,0,0,0,0,0,0,0,0,0,0,0,0,0,0,0,0,0,0,0,0,0,0,0,0,0,0,0,0,0,0,0,0,0,0,0,0,0,0,0,0,0,0,0,0,0,0,0,0,0,0,0,0,0,0,0,0,0,0,0,0,0,0,0,0,0,0,0,0,0,0,0,0,0,0,0,0,0,0,0,0,0,0,0,0,0,0,0,0,0,0,0,0,0,0,0,0,0,0,0,0,0,0,0,0,0,0,0,0,0,0,0,0,0,0,0,0,0,0,0,0,0,0,0,0,0,0,0,0,0,0,0,0,0,0,0,0,0,0,0,0,0,0,0,0,0,0,0,0,0,0,0,0,0,0,0,0,0,0,0,0,0,0,0,0,0,0,0,0,0,0,0,0,0,0,0,0,0,0,0,0,0,0,0,0,0,0,0,0,0,0,0,0,0,0,0,0,0,0,0,0,0,0,0,0,0,0,0,0,0,0,0,0,0,0,0,0,0,0,0,0,0,0,0,0,0,0,0,0,0,0,0,0,0,0,0,0,0,0,0,0,0,0,0,0,0,0,0,0,0,0,0,0,0,0,0,0,0,0,0,0,0,0,0,0,0,0,0,0,0,0,0,0,0,0,0,0,0,0,0,0,0,0,0,0,0,0,0,0,0,0,0,0,0,0,0,0,0,0,0,0,0,0,0,0,0,0],
"events":[
null,
{"id":1,"name":"Parallax","note":"","pages":[{"conditions":{"actorId":1,"actorValid":false,"itemId":1,"itemValid":false,"selfSwitchCh":"A","selfSwitchValid":false,"switch1Id":1,"switch1Valid":false,"switch2Id":1,"switch2Valid":false,"variableId":1,"variableValid":false,"variableValue":0},"directionFix":false,"image":{"characterIndex":0,"characterName":"","direction":2,"pattern":0,"tileId":0},"list":[{"code":357,"indent":0,"parameters":["MZPlusPrimeParallax","changeLayer","Change Layer",{"triggerType":"Page","":"","parallaxLayer":"GROUND","showLayer":"true","parallaxSettings":"{\"imagePath\":\"parallaxMaps/groundMap/groundAyano\",\"zIndex\":\"1\",\"blendMode\":\"\",\"opacity\":\"\",\"tint\":\"\",\"offsetX\":\"\",\"offsetY\":\"\",\"fogProperties\":\"\",\"positionType\":\"map\",\"mapX\":\"0\",\"mapY\":\"0\",\"width\":\"960\",\"height\":\"2880\",\"tilingX\":\"\",\"tilingY\":\"\",\"scrollingX\":\"\",\"scrollingY\":\"\",\"novaLighting\":\"\",\"lightMode\":\"NONE\"}"}]},{"code":657,"indent":0,"parameters":["Trigger Type = Page"]},{"code":657,"indent":0,"parameters":[" = "]},{"code":657,"indent":0,"parameters":["Parallax Layer = GROUND"]},{"code":657,"indent":0,"parameters":["Show Layer = true"]},{"code":657,"indent":0,"parameters":["Parallax Settings = {\"imagePath\":\"parallaxMaps/groundMap/gr…"]},{"code":357,"indent":0,"parameters":["MZPlusPrimeParallax","changeLayer","Change Layer",{"triggerType":"Page","":"","parallaxLayer":"PARALLAX","showLayer":"true","parallaxSettings":"{\"imagePath\":\"parallaxMaps/groundMap/groundAyanoOver\",\"zIndex\":\"5\",\"blendMode\":\"\",\"opacity\":\"\",\"tint\":\"\",\"offsetX\":\"\",\"offsetY\":\"\",\"fogProperties\":\"\",\"positionType\":\"map\",\"mapX\":\"0\",\"mapY\":\"0\",\"width\":\"960\",\"height\":\"2880\",\"tilingX\":\"\",\"tilingY\":\"\",\"scrollingX\":\"\",\"scrollingY\":\"\",\"novaLighting\":\"\",\"lightMode\":\"NONE\"}"}]},{"code":657,"indent":0,"parameters":["Trigger Type = Page"]},{"code":657,"indent":0,"parameters":[" = "]},{"code":657,"indent":0,"parameters":["Parallax Layer = PARALLAX"]},{"code":657,"indent":0,"parameters":["Show Layer = true"]},{"code":657,"indent":0,"parameters":["Parallax Settings = {\"imagePath\":\"parallaxMaps/groundMap/gr…"]},{"code":357,"indent":0,"parameters":["MZPlusPrimeParallax","changeLayer","Change Layer",{"triggerType":"Page","":"","parallaxLayer":"SHADOW","showLayer":"true","parallaxSettings":"{\"imagePath\":\"parallaxMaps/shadowMap/shadowAyano\",\"zIndex\":\"5\",\"blendMode\":\"MULTIPLY\",\"opacity\":\"\",\"tint\":\"\",\"offsetX\":\"\",\"offsetY\":\"\",\"fogProperties\":\"\",\"positionType\":\"map\",\"mapX\":\"0\",\"mapY\":\"0\",\"width\":\"960\",\"height\":\"2880\",\"tilingX\":\"\",\"tilingY\":\"\",\"scrollingX\":\"\",\"scrollingY\":\"\",\"novaLighting\":\"\",\"lightMode\":\"NONE\"}"}]},{"code":657,"indent":0,"parameters":["Trigger Type = Page"]},{"code":657,"indent":0,"parameters":[" = "]},{"code":657,"indent":0,"parameters":["Parallax Layer = SHADOW"]},{"code":657,"indent":0,"parameters":["Show Layer = true"]},{"code":657,"indent":0,"parameters":["Parallax Settings = {\"imagePath\":\"parallaxMaps/shadowMap/sh…"]},{"code":357,"indent":0,"parameters":["MZPlusPrimeParallax","changeLayer","Change Layer",{"triggerType":"Page","":"","parallaxLayer":"LIGHT","showLayer":"true","parallaxSettings":"{\"imagePath\":\"parallaxMaps/lightMap/lightAyano\",\"zIndex\":\"5\",\"blendMode\":\"ADD\",\"opacity\":\"\",\"tint\":\"\",\"offsetX\":\"\",\"offsetY\":\"\",\"fogProperties\":\"\",\"positionType\":\"map\",\"mapX\":\"0\",\"mapY\":\"0\",\"width\":\"960\",\"height\":\"2880\",\"tilingX\":\"\",\"tilingY\":\"\",\"scrollingX\":\"\",\"scrollingY\":\"\",\"novaLighting\":\"\",\"lightMode\":\"NONE\"}"}]},{"code":657,"indent":0,"parameters":["Trigger Type = Page"]},{"code":657,"indent":0,"parameters":[" = "]},{"code":657,"indent":0,"parameters":["Parallax Layer = LIGHT"]},{"code":657,"indent":0,"parameters":["Show Layer = true"]},{"code":657,"indent":0,"parameters":["Parallax Settings = {\"imagePath\":\"parallaxMaps/lightMap/lig…"]},{"code":0,"indent":0,"parameters":[]}],"moveFrequency":3,"moveRoute":{"list":[{"code":0,"parameters":[]}],"repeat":true,"skippable":false,"wait":false},"moveSpeed":3,"moveType":0,"priorityType":0,"stepAnime":false,"through":false,"trigger":4,"walkAnime":true}],"x":0,"y":0},
{"id":2,"name":"Seiya","note":"","pages":[{"conditions":{"actorId":1,"actorValid":false,"itemId":1,"itemValid":false,"selfSwitchCh":"A","selfSwitchValid":false,"switch1Id":1,"switch1Valid":false,"switch2Id":1,"switch2Valid":false,"variableId":1,"variableValid":false,"variableValue":0},"directionFix":false,"image":{"tileId":0,"characterName":"SF_Actor1","direction":2,"pattern":1,"characterIndex":0},"list":[{"code":223,"indent":0,"parameters":[[-187,-187,-85,187],60,false]},{"code":241,"indent":0,"parameters":[{"name":"BGM-111","volume":50,"pitch":100,"pan":0}]},{"code":204,"indent":0,"parameters":[8,5,6,false]},{"code":205,"indent":0,"parameters":[3,{"list":[{"code":29,"parameters":[4],"indent":null},{"code":19,"indent":null},{"code":39,"indent":null},{"code":0}],"repeat":false,"skippable":false,"wait":false}]},{"code":505,"indent":0,"parameters":[{"code":29,"parameters":[4],"indent":null}]},{"code":505,"indent":0,"parameters":[{"code":19,"indent":null}]},{"code":505,"indent":0,"parameters":[{"code":39,"indent":null}]},{"code":205,"indent":0,"parameters":[0,{"list":[{"code":29,"parameters":[4],"indent":null},{"code":19,"indent":null},{"code":0}],"repeat":false,"skippable":false,"wait":true}]},{"code":505,"indent":0,"parameters":[{"code":29,"parameters":[4],"indent":null}]},{"code":505,"indent":0,"parameters":[{"code":19,"indent":null}]},{"code":357,"indent":0,"parameters":["VisuMZ_1_MessageCore","MessageWindowProperties","Message: Properties",{"Rows:num":"4","Width:num":"1000","WordWrap:str":"No Change"}]},{"code":657,"indent":0,"parameters":["Rows = 4"]},{"code":657,"indent":0,"parameters":["Width = 1000"]},{"code":657,"indent":0,"parameters":["Word Wrap = No Change"]},{"code":357,"indent":0,"parameters":["VisuMZ_1_MessageCore","MessageWindowXyOffsets","Message: X/Y Offsets",{"OffsetX:eval":"100","OffsetY:eval":"35"}]},{"code":657,"indent":0,"parameters":["Offset X = 100"]},{"code":657,"indent":0,"parameters":["Offset Y = 35"]},{"code":231,"indent":0,"parameters":[80,"Textbox2",0,0,0,0,65,65,255,0]},{"code":101,"indent":0,"parameters":["",0,2,2,""]},{"code":401,"indent":0,"parameters":["\\HexColor<#ffffff>\\OutlineHexColor<#731696>\\OutlineWidth[3]What was this room's purpose? Why had it always been closed on your "]},{"code":401,"indent":0,"parameters":["previous visits? What dark secret did it harbor as Rihoko hinted?"]},{"code":101,"indent":0,"parameters":["",0,2,2,""]},{"code":401,"indent":0,"parameters":["\\HexColor<#ffffff>\\OutlineHexColor<#731696>\\OutlineWidth[3]You didn't have answers to these questions but were eager to discover them."]},{"code":101,"indent":0,"parameters":["",0,2,2,""]},{"code":401,"indent":0,"parameters":["\\HexColor<#ffffff>\\OutlineHexColor<#731696>\\OutlineWidth[3]Stepping into the dimly lit room, your eyes struggled to adjust at first. The only "]},{"code":401,"indent":0,"parameters":["source of light was a feeble diode lamp resting on a mattress in the center."]},{"code":223,"indent":0,"parameters":[[-102,-102,0,102],60,false]},{"code":101,"indent":0,"parameters":["",0,2,2,""]},{"code":401,"indent":0,"parameters":["\\HexColor<#ffffff>\\OutlineHexColor<#731696>\\OutlineWidth[3]Once your eyes acclimated, they fell upon numerous shelves lined with "]},{"code":401,"indent":0,"parameters":["small boxes and magazines."]},{"code":235,"indent":0,"parameters":[80]},{"code":205,"indent":0,"parameters":[0,{"list":[{"code":15,"parameters":[20],"indent":null},{"code":4,"indent":null},{"code":3,"indent":null},{"code":3,"indent":null},{"code":19,"indent":null},{"code":15,"parameters":[30],"indent":null},{"code":12,"indent":null},{"code":44,"parameters":[{"name":"Load2","volume":60,"pitch":100,"pan":0}],"indent":null},{"code":13,"indent":null},{"code":15,"parameters":[30],"indent":null},{"code":0}],"repeat":false,"skippable":false,"wait":true}]},{"code":505,"indent":0,"parameters":[{"code":15,"parameters":[20],"indent":null}]},{"code":505,"indent":0,"parameters":[{"code":4,"indent":null}]},{"code":505,"indent":0,"parameters":[{"code":3,"indent":null}]},{"code":505,"indent":0,"parameters":[{"code":3,"indent":null}]},{"code":505,"indent":0,"parameters":[{"code":19,"indent":null}]},{"code":505,"indent":0,"parameters":[{"code":15,"parameters":[30],"indent":null}]},{"code":505,"indent":0,"parameters":[{"code":12,"indent":null}]},{"code":505,"indent":0,"parameters":[{"code":44,"parameters":[{"name":"Load2","volume":60,"pitch":100,"pan":0}],"indent":null}]},{"code":505,"indent":0,"parameters":[{"code":13,"indent":null}]},{"code":505,"indent":0,"parameters":[{"code":15,"parameters":[30],"indent":null}]},{"code":231,"indent":0,"parameters":[80,"Textbox2",0,0,0,0,65,65,255,0]},{"code":101,"indent":0,"parameters":["",0,2,2,""]},{"code":401,"indent":0,"parameters":["\\HexColor<#ffffff>\\OutlineHexColor<#731696>\\OutlineWidth[3]You picked up one box and read its title – ‘Night Hospital Bitches.’"]},{"code":101,"indent":0,"parameters":["",0,2,2,"\\HexColor<#ffffff>\\OutlineHexColor<#731696>\\OutlineWidth[3]\\n[1]"]},{"code":401,"indent":0,"parameters":["\\HexColor<#ffffff>\\OutlineHexColor<#731696>\\OutlineWidth[3]\"Excuse me... what?\""]},{"code":101,"indent":0,"parameters":["",0,2,2,""]},{"code":401,"indent":0,"parameters":["\\HexColor<#ffffff>\\OutlineHexColor<#731696>\\OutlineWidth[3]A closer inspection revealed that it was an adult anime CD."]},{"code":101,"indent":0,"parameters":["",0,2,2,""]},{"code":401,"indent":0,"parameters":["\\HexColor<#ffffff>\\OutlineHexColor<#731696>\\OutlineWidth[3]‘I'll have to look this up later,’ you thought before returning it back onto "]},{"code":401,"indent":0,"parameters":["its shelf."]},{"code":235,"indent":0,"parameters":[80]},{"code":205,"indent":0,"parameters":[0,{"list":[{"code":15,"parameters":[20],"indent":null},{"code":3,"indent":null},{"code":19,"indent":null},{"code":15,"parameters":[30],"indent":0},{"code":12,"indent":0},{"code":44,"parameters":[{"name":"Load2","volume":60,"pitch":100,"pan":0}],"indent":0},{"code":13,"indent":0},{"code":15,"parameters":[30],"indent":0},{"code":0}],"repeat":false,"skippable":false,"wait":true}]},{"code":505,"indent":0,"parameters":[{"code":15,"parameters":[20],"indent":null}]},{"code":505,"indent":0,"parameters":[{"code":3,"indent":null}]},{"code":505,"indent":0,"parameters":[{"code":19,"indent":null}]},{"code":505,"indent":0,"parameters":[{"code":15,"parameters":[30],"indent":0}]},{"code":505,"indent":0,"parameters":[{"code":12,"indent":0}]},{"code":505,"indent":0,"parameters":[{"code":44,"parameters":[{"name":"Load2","volume":60,"pitch":100,"pan":0}],"indent":0}]},{"code":505,"indent":0,"parameters":[{"code":13,"indent":0}]},{"code":505,"indent":0,"parameters":[{"code":15,"parameters":[30],"indent":0}]},{"code":231,"indent":0,"parameters":[80,"Textbox2",0,0,0,0,65,65,255,0]},{"code":101,"indent":0,"parameters":["",0,2,2,"\\HexColor<#ffffff>\\OutlineHexColor<#731696>\\OutlineWidth[3]\\n[1]"]},{"code":401,"indent":0,"parameters":["\\HexColor<#ffffff>\\OutlineHexColor<#731696>\\OutlineWidth[3]\"And this one...\""]},{"code":101,"indent":0,"parameters":["",0,2,2,""]},{"code":401,"indent":0,"parameters":["\\HexColor<#ffffff>\\OutlineHexColor<#731696>\\OutlineWidth[3]‘Bible Pink’"]},{"code":101,"indent":0,"parameters":["",0,2,2,""]},{"code":401,"indent":0,"parameters":["\\HexColor<#ffffff>\\OutlineHexColor<#731696>\\OutlineWidth[3]This one rang a bell; although not something you'd readily admit watching "]},{"code":401,"indent":0,"parameters":["let alone enjoying."]},{"code":101,"indent":0,"parameters":["",0,2,2,""]},{"code":401,"indent":0,"parameters":["\\HexColor<#ffffff>\\OutlineHexColor<#731696>\\OutlineWidth[3]It seemed like you'd stumbled upon Ayano's hidden stash of pornography "]},{"code":401,"indent":0,"parameters":["which wasn’t exactly shocking considering everyone has their ways of "]},{"code":401,"indent":0,"parameters":["coping with certain frustrations."]},{"code":235,"indent":0,"parameters":[80]},{"code":205,"indent":0,"parameters":[0,{"list":[{"code":15,"parameters":[20],"indent":null},{"code":3,"indent":null},{"code":3,"indent":null},{"code":3,"indent":null},{"code":3,"indent":null},{"code":19,"indent":null},{"code":15,"parameters":[30],"indent":0},{"code":12,"indent":0},{"code":44,"parameters":[{"name":"Load2","volume":60,"pitch":100,"pan":0}],"indent":0},{"code":13,"indent":0},{"code":15,"parameters":[30],"indent":0},{"code":0}],"repeat":false,"skippable":false,"wait":true}]},{"code":505,"indent":0,"parameters":[{"code":15,"parameters":[20],"indent":null}]},{"code":505,"indent":0,"parameters":[{"code":3,"indent":null}]},{"code":505,"indent":0,"parameters":[{"code":3,"indent":null}]},{"code":505,"indent":0,"parameters":[{"code":3,"indent":null}]},{"code":505,"indent":0,"parameters":[{"code":3,"indent":null}]},{"code":505,"indent":0,"parameters":[{"code":19,"indent":null}]},{"code":505,"indent":0,"parameters":[{"code":15,"parameters":[30],"indent":0}]},{"code":505,"indent":0,"parameters":[{"code":12,"indent":0}]},{"code":505,"indent":0,"parameters":[{"code":44,"parameters":[{"name":"Load2","volume":60,"pitch":100,"pan":0}],"indent":0}]},{"code":505,"indent":0,"parameters":[{"code":13,"indent":0}]},{"code":505,"indent":0,"parameters":[{"code":15,"parameters":[30],"indent":0}]},{"code":231,"indent":0,"parameters":[80,"Textbox2",0,0,0,0,65,65,255,0]},{"code":101,"indent":0,"parameters":["",0,2,2,""]},{"code":401,"indent":0,"parameters":["\\HexColor<#ffffff>\\OutlineHexColor<#731696>\\OutlineWidth[3]Deciding to explore further, your hand reached out for a magazine from "]},{"code":401,"indent":0,"parameters":["another shelf – ‘How I transformed.’"]},{"code":101,"indent":0,"parameters":["",0,2,2,""]},{"code":401,"indent":0,"parameters":["\\HexColor<#ffffff>\\OutlineHexColor<#731696>\\OutlineWidth[3]Recognizing yet another infamous adult manga series known for its explicit "]},{"code":401,"indent":0,"parameters":["content made you realize Ayano had some unique tastes indeed."]},{"code":101,"indent":0,"parameters":["",0,2,2,""]},{"code":401,"indent":0,"parameters":["\\HexColor<#ffffff>\\OutlineHexColor<#731696>\\OutlineWidth[3]Not wanting to intrude any further on her private collection, you decided "]},{"code":401,"indent":0,"parameters":["to move away and explore other parts of the room instead."]},{"code":235,"indent":0,"parameters":[80]},{"code":205,"indent":0,"parameters":[0,{"list":[{"code":15,"parameters":[20],"indent":null},{"code":2,"indent":null},{"code":2,"indent":null},{"code":2,"indent":null},{"code":2,"indent":null},{"code":2,"indent":null},{"code":2,"indent":null},{"code":2,"indent":null},{"code":2,"indent":null},{"code":2,"indent":null},{"code":2,"indent":null},{"code":19,"indent":null},{"code":15,"parameters":[30],"indent":0},{"code":12,"indent":0},{"code":44,"parameters":[{"name":"Load2","volume":60,"pitch":100,"pan":0}],"indent":0},{"code":13,"indent":0},{"code":15,"parameters":[30],"indent":0},{"code":0}],"repeat":false,"skippable":false,"wait":true}]},{"code":505,"indent":0,"parameters":[{"code":15,"parameters":[20],"indent":null}]},{"code":505,"indent":0,"parameters":[{"code":2,"indent":null}]},{"code":505,"indent":0,"parameters":[{"code":2,"indent":null}]},{"code":505,"indent":0,"parameters":[{"code":2,"indent":null}]},{"code":505,"indent":0,"parameters":[{"code":2,"indent":null}]},{"code":505,"indent":0,"parameters":[{"code":2,"indent":null}]},{"code":505,"indent":0,"parameters":[{"code":2,"indent":null}]},{"code":505,"indent":0,"parameters":[{"code":2,"indent":null}]},{"code":505,"indent":0,"parameters":[{"code":2,"indent":null}]},{"code":505,"indent":0,"parameters":[{"code":2,"indent":null}]},{"code":505,"indent":0,"parameters":[{"code":2,"indent":null}]},{"code":505,"indent":0,"parameters":[{"code":19,"indent":null}]},{"code":505,"indent":0,"parameters":[{"code":15,"parameters":[30],"indent":0}]},{"code":505,"indent":0,"parameters":[{"code":12,"indent":0}]},{"code":505,"indent":0,"parameters":[{"code":44,"parameters":[{"name":"Load2","volume":60,"pitch":100,"pan":0}],"indent":0}]},{"code":505,"indent":0,"parameters":[{"code":13,"indent":0}]},{"code":505,"indent":0,"parameters":[{"code":15,"parameters":[30],"indent":0}]},{"code":231,"indent":0,"parameters":[80,"Textbox2",0,0,0,0,65,65,255,0]},{"code":101,"indent":0,"parameters":["",0,2,2,"\\HexColor<#ffffff>\\OutlineHexColor<#731696>\\OutlineWidth[3]\\n[1]"]},{"code":401,"indent":0,"parameters":["\\HexColor<#ffffff>\\OutlineHexColor<#731696>\\OutlineWidth[3]\"Let's see what this is.\""]},{"code":101,"indent":0,"parameters":["",0,2,2,""]},{"code":401,"indent":0,"parameters":["\\HexColor<#ffffff>\\OutlineHexColor<#731696>\\OutlineWidth[3]‘Sengoku Wance’"]},{"code":101,"indent":0,"parameters":["",0,2,2,""]},{"code":401,"indent":0,"parameters":["\\HexColor<#ffffff>\\OutlineHexColor<#731696>\\OutlineWidth[3]This time it was an erotic game featuring a brutish protagonist engaging in "]},{"code":401,"indent":0,"parameters":["explicit activities with multiple women."]},{"code":101,"indent":0,"parameters":["",0,2,2,"\\HexColor<#ffffff>\\OutlineHexColor<#731696>\\OutlineWidth[3]\\n[1]"]},{"code":401,"indent":0,"parameters":["\\HexColor<#ffffff>\\OutlineHexColor<#731696>\\OutlineWidth[3]\"That's odd.\""]},{"code":101,"indent":0,"parameters":["",0,2,2,""]},{"code":401,"indent":0,"parameters":["\\HexColor<#ffffff>\\OutlineHexColor<#731696>\\OutlineWidth[3]You had moved far enough away from the adult content shelves. So why were "]},{"code":401,"indent":0,"parameters":["you still coming across such items?"]},{"code":235,"indent":0,"parameters":[80]},{"code":205,"indent":0,"parameters":[0,{"list":[{"code":15,"parameters":[20],"indent":null},{"code":3,"indent":null},{"code":3,"indent":null},{"code":4,"indent":null},{"code":19,"indent":null},{"code":15,"parameters":[30],"indent":0},{"code":0}],"repeat":false,"skippable":false,"wait":true}]},{"code":505,"indent":0,"parameters":[{"code":15,"parameters":[20],"indent":null}]},{"code":505,"indent":0,"parameters":[{"code":3,"indent":null}]},{"code":505,"indent":0,"parameters":[{"code":3,"indent":null}]},{"code":505,"indent":0,"parameters":[{"code":4,"indent":null}]},{"code":505,"indent":0,"parameters":[{"code":19,"indent":null}]},{"code":505,"indent":0,"parameters":[{"code":15,"parameters":[30],"indent":0}]},{"code":231,"indent":0,"parameters":[80,"Textbox2",0,0,0,0,65,65,255,0]},{"code":101,"indent":0,"parameters":["",0,2,2,""]},{"code":401,"indent":0,"parameters":["\\HexColor<#ffffff>\\OutlineHexColor<#731696>\\OutlineWidth[3]Then it dawned on you."]},{"code":101,"indent":0,"parameters":["",0,2,2,""]},{"code":401,"indent":0,"parameters":["\\HexColor<#ffffff>\\OutlineHexColor<#731696>\\OutlineWidth[3]You found yourself surrounded by numerous shelves filled with games, "]},{"code":401,"indent":0,"parameters":["movies, and magazines. Anime figurines were on display alongside "]},{"code":401,"indent":0,"parameters":["dakimakuras and plushies."]},{"code":101,"indent":0,"parameters":["",0,2,2,""]},{"code":401,"indent":0,"parameters":["\\HexColor<#ffffff>\\OutlineHexColor<#731696>\\OutlineWidth[3]It was clear that Ayano was a massive otaku, but there was more to it than "]},{"code":401,"indent":0,"parameters":["just that."]},{"code":235,"indent":0,"parameters":[80]},{"code":205,"indent":0,"parameters":[0,{"list":[{"code":29,"parameters":[5],"indent":null},{"code":15,"parameters":[20],"indent":null},{"code":1,"indent":null},{"code":2,"indent":null},{"code":2,"indent":null},{"code":2,"indent":null},{"code":2,"indent":null},{"code":2,"indent":null},{"code":2,"indent":null},{"code":4,"indent":null},{"code":4,"indent":null},{"code":4,"indent":null},{"code":2,"indent":0},{"code":19,"indent":null},{"code":15,"parameters":[30],"indent":0},{"code":12,"indent":0},{"code":44,"parameters":[{"name":"Load2","volume":60,"pitch":100,"pan":0}],"indent":0},{"code":13,"indent":0},{"code":15,"parameters":[30],"indent":0},{"code":0}],"repeat":false,"skippable":false,"wait":true}]},{"code":505,"indent":0,"parameters":[{"code":29,"parameters":[5],"indent":null}]},{"code":505,"indent":0,"parameters":[{"code":15,"parameters":[20],"indent":null}]},{"code":505,"indent":0,"parameters":[{"code":1,"indent":null}]},{"code":505,"indent":0,"parameters":[{"code":2,"indent":null}]},{"code":505,"indent":0,"parameters":[{"code":2,"indent":null}]},{"code":505,"indent":0,"parameters":[{"code":2,"indent":null}]},{"code":505,"indent":0,"parameters":[{"code":2,"indent":null}]},{"code":505,"indent":0,"parameters":[{"code":2,"indent":null}]},{"code":505,"indent":0,"parameters":[{"code":2,"indent":null}]},{"code":505,"indent":0,"parameters":[{"code":4,"indent":null}]},{"code":505,"indent":0,"parameters":[{"code":4,"indent":null}]},{"code":505,"indent":0,"parameters":[{"code":4,"indent":null}]},{"code":505,"indent":0,"parameters":[{"code":2,"indent":0}]},{"code":505,"indent":0,"parameters":[{"code":19,"indent":null}]},{"code":505,"indent":0,"parameters":[{"code":15,"parameters":[30],"indent":0}]},{"code":505,"indent":0,"parameters":[{"code":12,"indent":0}]},{"code":505,"indent":0,"parameters":[{"code":44,"parameters":[{"name":"Load2","volume":60,"pitch":100,"pan":0}],"indent":0}]},{"code":505,"indent":0,"parameters":[{"code":13,"indent":0}]},{"code":505,"indent":0,"parameters":[{"code":15,"parameters":[30],"indent":0}]},{"code":231,"indent":0,"parameters":[80,"Textbox2",0,0,0,0,65,65,255,0]},{"code":101,"indent":0,"parameters":["",0,2,2,""]},{"code":401,"indent":0,"parameters":["\\HexColor<#ffffff>\\OutlineHexColor<#731696>\\OutlineWidth[3]With a sense of dread creeping up your spine, you rushed over to the furthest "]},{"code":401,"indent":0,"parameters":["shelf and picked up a box – porn."]},{"code":235,"indent":0,"parameters":[80]},{"code":205,"indent":0,"parameters":[0,{"list":[{"code":15,"parameters":[20],"indent":null},{"code":3,"indent":null},{"code":1,"indent":null},{"code":1,"indent":null},{"code":1,"indent":null},{"code":3,"indent":null},{"code":3,"indent":null},{"code":4,"indent":null},{"code":15,"parameters":[30],"indent":0},{"code":0}],"repeat":false,"skippable":false,"wait":true}]},{"code":505,"indent":0,"parameters":[{"code":15,"parameters":[20],"indent":null}]},{"code":505,"indent":0,"parameters":[{"code":3,"indent":null}]},{"code":505,"indent":0,"parameters":[{"code":1,"indent":null}]},{"code":505,"indent":0,"parameters":[{"code":1,"indent":null}]},{"code":505,"indent":0,"parameters":[{"code":1,"indent":null}]},{"code":505,"indent":0,"parameters":[{"code":3,"indent":null}]},{"code":505,"indent":0,"parameters":[{"code":3,"indent":null}]},{"code":505,"indent":0,"parameters":[{"code":4,"indent":null}]},{"code":505,"indent":0,"parameters":[{"code":15,"parameters":[30],"indent":0}]},{"code":231,"indent":0,"parameters":[80,"Textbox2",0,0,0,0,65,65,255,0]},{"code":101,"indent":0,"parameters":["",0,2,2,""]},{"code":401,"indent":0,"parameters":["\\HexColor<#ffffff>\\OutlineHexColor<#731696>\\OutlineWidth[3]The dakimakura hanging on the wall featured a naked female character."]},{"code":235,"indent":0,"parameters":[80]},{"code":205,"indent":0,"parameters":[0,{"list":[{"code":15,"parameters":[20],"indent":null},{"code":1,"indent":null},{"code":2,"indent":null},{"code":2,"indent":null},{"code":2,"indent":null},{"code":19,"indent":null},{"code":15,"parameters":[30],"indent":0},{"code":0}],"repeat":false,"skippable":false,"wait":true}]},{"code":505,"indent":0,"parameters":[{"code":15,"parameters":[20],"indent":null}]},{"code":505,"indent":0,"parameters":[{"code":1,"indent":null}]},{"code":505,"indent":0,"parameters":[{"code":2,"indent":null}]},{"code":505,"indent":0,"parameters":[{"code":2,"indent":null}]},{"code":505,"indent":0,"parameters":[{"code":2,"indent":null}]},{"code":505,"indent":0,"parameters":[{"code":19,"indent":null}]},{"code":505,"indent":0,"parameters":[{"code":15,"parameters":[30],"indent":0}]},{"code":231,"indent":0,"parameters":[80,"Textbox2",0,0,0,0,65,65,255,0]},{"code":101,"indent":0,"parameters":["",0,2,2,""]},{"code":401,"indent":0,"parameters":["\\HexColor<#ffffff>\\OutlineHexColor<#731696>\\OutlineWidth[3]The figurines too were either nude or clad in highly suggestive outfits."]},{"code":235,"indent":0,"parameters":[80]},{"code":205,"indent":0,"parameters":[0,{"list":[{"code":29,"parameters":[6],"indent":null},{"code":15,"parameters":[20],"indent":null},{"code":3,"indent":null},{"code":3,"indent":null},{"code":3,"indent":null},{"code":3,"indent":null},{"code":19,"indent":null},{"code":15,"parameters":[20],"indent":null},{"code":12,"indent":0},{"code":44,"parameters":[{"name":"Load2","volume":60,"pitch":100,"pan":0}],"indent":0},{"code":13,"indent":0},{"code":15,"parameters":[20],"indent":null},{"code":3,"indent":null},{"code":3,"indent":null},{"code":3,"indent":null},{"code":3,"indent":null},{"code":3,"indent":null},{"code":3,"indent":null},{"code":19,"indent":null},{"code":15,"parameters":[20],"indent":null},{"code":12,"indent":null},{"code":44,"parameters":[{"name":"Load2","volume":60,"pitch":100,"pan":0}],"indent":null},{"code":13,"indent":null},{"code":15,"parameters":[20],"indent":null},{"code":3,"indent":null},{"code":3,"indent":null},{"code":3,"indent":null},{"code":3,"indent":null},{"code":3,"indent":null},{"code":19,"indent":null},{"code":15,"parameters":[20],"indent":null},{"code":12,"indent":null},{"code":44,"parameters":[{"name":"Load2","volume":60,"pitch":100,"pan":0}],"indent":null},{"code":13,"indent":null},{"code":15,"parameters":[20],"indent":null},{"code":2,"indent":null},{"code":4,"indent":null},{"code":4,"indent":null},{"code":4,"indent":null},{"code":3,"indent":null},{"code":19,"indent":null},{"code":15,"parameters":[20],"indent":null},{"code":12,"indent":null},{"code":44,"parameters":[{"name":"Load2","volume":60,"pitch":100,"pan":0}],"indent":null},{"code":13,"indent":null},{"code":15,"parameters":[20],"indent":null},{"code":2,"indent":null},{"code":4,"indent":null},{"code":4,"indent":null},{"code":4,"indent":null},{"code":2,"indent":null},{"code":2,"indent":null},{"code":2,"indent":null},{"code":1,"indent":null},{"code":1,"indent":null},{"code":1,"indent":null},{"code":2,"indent":null},{"code":19,"indent":null},{"code":15,"parameters":[30],"indent":null},{"code":0}],"repeat":false,"skippable":false,"wait":true}]},{"code":505,"indent":0,"parameters":[{"code":29,"parameters":[6],"indent":null}]},{"code":505,"indent":0,"parameters":[{"code":15,"parameters":[20],"indent":null}]},{"code":505,"indent":0,"parameters":[{"code":3,"indent":null}]},{"code":505,"indent":0,"parameters":[{"code":3,"indent":null}]},{"code":505,"indent":0,"parameters":[{"code":3,"indent":null}]},{"code":505,"indent":0,"parameters":[{"code":3,"indent":null}]},{"code":505,"indent":0,"parameters":[{"code":19,"indent":null}]},{"code":505,"indent":0,"parameters":[{"code":15,"parameters":[20],"indent":null}]},{"code":505,"indent":0,"parameters":[{"code":12,"indent":0}]},{"code":505,"indent":0,"parameters":[{"code":44,"parameters":[{"name":"Load2","volume":60,"pitch":100,"pan":0}],"indent":0}]},{"code":505,"indent":0,"parameters":[{"code":13,"indent":0}]},{"code":505,"indent":0,"parameters":[{"code":15,"parameters":[20],"indent":null}]},{"code":505,"indent":0,"parameters":[{"code":3,"indent":null}]},{"code":505,"indent":0,"parameters":[{"code":3,"indent":null}]},{"code":505,"indent":0,"parameters":[{"code":3,"indent":null}]},{"code":505,"indent":0,"parameters":[{"code":3,"indent":null}]},{"code":505,"indent":0,"parameters":[{"code":3,"indent":null}]},{"code":505,"indent":0,"parameters":[{"code":3,"indent":null}]},{"code":505,"indent":0,"parameters":[{"code":19,"indent":null}]},{"code":505,"indent":0,"parameters":[{"code":15,"parameters":[20],"indent":null}]},{"code":505,"indent":0,"parameters":[{"code":12,"indent":null}]},{"code":505,"indent":0,"parameters":[{"code":44,"parameters":[{"name":"Load2","volume":60,"pitch":100,"pan":0}],"indent":null}]},{"code":505,"indent":0,"parameters":[{"code":13,"indent":null}]},{"code":505,"indent":0,"parameters":[{"code":15,"parameters":[20],"indent":null}]},{"code":505,"indent":0,"parameters":[{"code":3,"indent":null}]},{"code":505,"indent":0,"parameters":[{"code":3,"indent":null}]},{"code":505,"indent":0,"parameters":[{"code":3,"indent":null}]},{"code":505,"indent":0,"parameters":[{"code":3,"indent":null}]},{"code":505,"indent":0,"parameters":[{"code":3,"indent":null}]},{"code":505,"indent":0,"parameters":[{"code":19,"indent":null}]},{"code":505,"indent":0,"parameters":[{"code":15,"parameters":[20],"indent":null}]},{"code":505,"indent":0,"parameters":[{"code":12,"indent":null}]},{"code":505,"indent":0,"parameters":[{"code":44,"parameters":[{"name":"Load2","volume":60,"pitch":100,"pan":0}],"indent":null}]},{"code":505,"indent":0,"parameters":[{"code":13,"indent":null}]},{"code":505,"indent":0,"parameters":[{"code":15,"parameters":[20],"indent":null}]},{"code":505,"indent":0,"parameters":[{"code":2,"indent":null}]},{"code":505,"indent":0,"parameters":[{"code":4,"indent":null}]},{"code":505,"indent":0,"parameters":[{"code":4,"indent":null}]},{"code":505,"indent":0,"parameters":[{"code":4,"indent":null}]},{"code":505,"indent":0,"parameters":[{"code":3,"indent":null}]},{"code":505,"indent":0,"parameters":[{"code":19,"indent":null}]},{"code":505,"indent":0,"parameters":[{"code":15,"parameters":[20],"indent":null}]},{"code":505,"indent":0,"parameters":[{"code":12,"indent":null}]},{"code":505,"indent":0,"parameters":[{"code":44,"parameters":[{"name":"Load2","volume":60,"pitch":100,"pan":0}],"indent":null}]},{"code":505,"indent":0,"parameters":[{"code":13,"indent":null}]},{"code":505,"indent":0,"parameters":[{"code":15,"parameters":[20],"indent":null}]},{"code":505,"indent":0,"parameters":[{"code":2,"indent":null}]},{"code":505,"indent":0,"parameters":[{"code":4,"indent":null}]},{"code":505,"indent":0,"parameters":[{"code":4,"indent":null}]},{"code":505,"indent":0,"parameters":[{"code":4,"indent":null}]},{"code":505,"indent":0,"parameters":[{"code":2,"indent":null}]},{"code":505,"indent":0,"parameters":[{"code":2,"indent":null}]},{"code":505,"indent":0,"parameters":[{"code":2,"indent":null}]},{"code":505,"indent":0,"parameters":[{"code":1,"indent":null}]},{"code":505,"indent":0,"parameters":[{"code":1,"indent":null}]},{"code":505,"indent":0,"parameters":[{"code":1,"indent":null}]},{"code":505,"indent":0,"parameters":[{"code":2,"indent":null}]},{"code":505,"indent":0,"parameters":[{"code":19,"indent":null}]},{"code":505,"indent":0,"parameters":[{"code":15,"parameters":[30],"indent":null}]},{"code":231,"indent":0,"parameters":[80,"Textbox2",0,0,0,0,65,65,255,0]},{"code":101,"indent":0,"parameters":["",0,2,2,""]},{"code":401,"indent":0,"parameters":["\\HexColor<#ffffff>\\OutlineHexColor<#731696>\\OutlineWidth[3]Every anime DVD – porn; every game – 18+ content; every magazine – "]},{"code":401,"indent":0,"parameters":["adult erotica."]},{"code":101,"indent":0,"parameters":["",0,2,2,""]},{"code":401,"indent":0,"parameters":["\\HexColor<#ffffff>\\OutlineHexColor<#731696>\\OutlineWidth[3]There were sets of risqué cosplay outfits and erotic lingerie displayed "]},{"code":401,"indent":0,"parameters":["throughout the room."]},{"code":101,"indent":0,"parameters":["",0,2,2,""]},{"code":401,"indent":0,"parameters":["\\HexColor<#ffffff>\\OutlineHexColor<#731696>\\OutlineWidth[3]It was undeniable: this vast space spanning over twenty meters each way "]},{"code":401,"indent":0,"parameters":["was filled entirely with pornographic and erotic paraphernalia."]},{"code":101,"indent":0,"parameters":["",0,2,2,""]},{"code":401,"indent":0,"parameters":["\\HexColor<#ffffff>\\OutlineHexColor<#731696>\\OutlineWidth[3]Gathering such an extensive collection would likely take someone their "]},{"code":401,"indent":0,"parameters":["entire lifetime."]},{"code":101,"indent":0,"parameters":["",0,2,2,""]},{"code":401,"indent":0,"parameters":["\\HexColor<#ffffff>\\OutlineHexColor<#731696>\\OutlineWidth[3]Your mind struggled to reconcile the image of gruff, witty baker Ayano "]},{"code":401,"indent":0,"parameters":["with what lay before your eyes."]},{"code":101,"indent":0,"parameters":["",0,2,2,""]},{"code":401,"indent":0,"parameters":["\\HexColor<#ffffff>\\OutlineHexColor<#731696>\\OutlineWidth[3]Almost as if acting independently from your thoughts, your legs carried "]},{"code":401,"indent":0,"parameters":["you towards the only illuminated section in the middle of the room..."]},{"code":235,"indent":0,"parameters":[80]},{"code":205,"indent":0,"parameters":[0,{"list":[{"code":29,"parameters":[3],"indent":null},{"code":15,"parameters":[20],"indent":null},{"code":2,"indent":null},{"code":2,"indent":null},{"code":19,"indent":null},{"code":15,"parameters":[30],"indent":0},{"code":0}],"repeat":false,"skippable":false,"wait":true}]},{"code":505,"indent":0,"parameters":[{"code":29,"parameters":[3],"indent":null}]},{"code":505,"indent":0,"parameters":[{"code":15,"parameters":[20],"indent":null}]},{"code":505,"indent":0,"parameters":[{"code":2,"indent":null}]},{"code":505,"indent":0,"parameters":[{"code":2,"indent":null}]},{"code":505,"indent":0,"parameters":[{"code":19,"indent":null}]},{"code":505,"indent":0,"parameters":[{"code":15,"parameters":[30],"indent":0}]},{"code":231,"indent":0,"parameters":[80,"Textbox2",0,0,0,0,65,65,255,0]},{"code":101,"indent":0,"parameters":["",0,2,2,""]},{"code":401,"indent":0,"parameters":["\\HexColor<#ffffff>\\OutlineHexColor<#731696>\\OutlineWidth[3]As you moved closer, you spotted a familiar apron with ‘Fuck Bread’ "]},{"code":401,"indent":0,"parameters":["inscribed across it. Beside it lay a skirt and shirt remarkably similar to "]},{"code":401,"indent":0,"parameters":["Ayano's usual attire."]},{"code":101,"indent":0,"parameters":["",0,2,2,""]},{"code":401,"indent":0,"parameters":["\\HexColor<#ffffff>\\OutlineHexColor<#731696>\\OutlineWidth[3]A lamp sat on the edge of a mattress strewn with cushions, magazines, and "]},{"code":401,"indent":0,"parameters":["a small screen playing an explicit video paused midway."]},{"code":101,"indent":0,"parameters":["",0,2,2,""]},{"code":401,"indent":0,"parameters":["\\HexColor<#ffffff>\\OutlineHexColor<#731696>\\OutlineWidth[3]You noticed a sizable bra and pair of panties hastily stuffed under one of the "]},{"code":401,"indent":0,"parameters":["cushions but still peeking out."]},{"code":101,"indent":0,"parameters":["",0,2,2,""]},{"code":401,"indent":0,"parameters":["\\HexColor<#ffffff>\\OutlineHexColor<#731696>\\OutlineWidth[3]Drawn by an unknown force, you reached out and pulled out the underwear. "]},{"code":401,"indent":0,"parameters":["They were incredibly soft to touch... and they were still warm..."]},{"code":101,"indent":0,"parameters":["",0,2,2,"\\HexColor<#ffffff>\\OutlineHexColor<#731696>\\OutlineWidth[3]\\n[1]"]},{"code":401,"indent":0,"parameters":["\\HexColor<#ffffff>\\OutlineHexColor<#731696>\\OutlineWidth[3]\"Don’t tell me...\""]},{"code":101,"indent":0,"parameters":["",0,2,2,""]},{"code":401,"indent":0,"parameters":["\\HexColor<#ffffff>\\OutlineHexColor<#731696>\\OutlineWidth[3]All this time while you were hard at work in the bakery, Ayano was here in "]},{"code":401,"indent":0,"parameters":["this room all alone... touching herself."]},{"code":241,"indent":0,"parameters":[{"name":"","volume":50,"pitch":100,"pan":0}]},{"code":235,"indent":0,"parameters":[80]},{"code":205,"indent":0,"parameters":[3,{"list":[{"code":29,"parameters":[2],"indent":null},{"code":40,"indent":null},{"code":4,"indent":null},{"code":4,"indent":null},{"code":15,"parameters":[20],"indent":null},{"code":0}],"repeat":false,"skippable":false,"wait":true}]},{"code":505,"indent":0,"parameters":[{"code":29,"parameters":[2],"indent":null}]},{"code":505,"indent":0,"parameters":[{"code":40,"indent":null}]},{"code":505,"indent":0,"parameters":[{"code":4,"indent":null}]},{"code":505,"indent":0,"parameters":[{"code":4,"indent":null}]},{"code":505,"indent":0,"parameters":[{"code":15,"parameters":[20],"indent":null}]},{"code":225,"indent":0,"parameters":[9,6,60,false]},{"code":101,"indent":0,"parameters":["",0,2,2,"\\HexColor<#ffffff>\\OutlineHexColor<#731696>\\OutlineWidth[3]???"]},{"code":401,"indent":0,"parameters":["\\HexColor<#ffffff>\\OutlineHexColor<#731696>\\OutlineWidth[3]\"EEEEEEEEEEEEK!!!!\""]},{"code":235,"indent":0,"parameters":[80]},{"code":205,"indent":0,"parameters":[0,{"list":[{"code":16,"indent":null},{"code":15,"parameters":[60],"indent":null},{"code":0}],"repeat":false,"skippable":false,"wait":true}]},{"code":505,"indent":0,"parameters":[{"code":16,"indent":null}]},{"code":505,"indent":0,"parameters":[{"code":15,"parameters":[60],"indent":null}]},{"code":241,"indent":0,"parameters":[{"name":"JGSM_BGM16_Serious","volume":50,"pitch":100,"pan":0}]},{"code":231,"indent":0,"parameters":[1,"CG/EV03_00",0,0,0,0,67,67,255,0]},{"code":231,"indent":0,"parameters":[80,"Textbox2",0,0,0,0,65,65,255,0]},{"code":101,"indent":0,"parameters":["",0,2,2,""]},{"code":401,"indent":0,"parameters":["\\HexColor<#ffffff>\\OutlineHexColor<#731696>\\OutlineWidth[3]You spun around at the sudden shriek with underwear still clutched in your "]},{"code":401,"indent":0,"parameters":["hand only to be met with Ayano herself – stark naked and frozen in shock "]},{"code":401,"indent":0,"parameters":["at the entrance."]},{"code":101,"indent":0,"parameters":["",0,2,2,""]},{"code":401,"indent":0,"parameters":["\\HexColor<#ffffff>\\OutlineHexColor<#731696>\\OutlineWidth[3]The hallway light cast her curvaceous figure into sharp relief while shadows "]},{"code":401,"indent":0,"parameters":["played over her ample chest and more intimate areas hidden behind a modest "]},{"code":401,"indent":0,"parameters":["patch of hair."]},{"code":101,"indent":0,"parameters":["",0,2,2,""]},{"code":401,"indent":0,"parameters":["\\HexColor<#ffffff>\\OutlineHexColor<#731696>\\OutlineWidth[3]Despite her undeniable allure, any feelings of desire were drowned out by "]},{"code":401,"indent":0,"parameters":["sheer shock."]},{"code":101,"indent":0,"parameters":["",0,2,2,""]},{"code":401,"indent":0,"parameters":["\\HexColor<#ffffff>\\OutlineHexColor<#731696>\\OutlineWidth[3]Your mind went blank; too stunned to process what was unfolding before "]},{"code":401,"indent":0,"parameters":["your eyes."]},{"code":101,"indent":0,"parameters":["",0,2,2,""]},{"code":401,"indent":0,"parameters":["\\HexColor<#ffffff>\\OutlineHexColor<#731696>\\OutlineWidth[3]Ayano seemed equally taken aback as she stood there shaking in disbelief "]},{"code":401,"indent":0,"parameters":["without making any attempt to cover herself up."]},{"code":231,"indent":0,"parameters":[1,"CG/EV03_01",0,0,0,0,67,67,255,0]},{"code":101,"indent":0,"parameters":["",0,2,2,"\\HexColor<#ffffff>\\OutlineHexColor<#731696>\\OutlineWidth[3]Ayano"]},{"code":401,"indent":0,"parameters":["\\HexColor<#ffffff>\\OutlineHexColor<#731696>\\OutlineWidth[3]\"Little Pal, why? How did you get here?!\""]},{"code":101,"indent":0,"parameters":["",0,2,2,"\\HexColor<#ffffff>\\OutlineHexColor<#731696>\\OutlineWidth[3]\\n[1]"]},{"code":401,"indent":0,"parameters":["\\HexColor<#ffffff>\\OutlineHexColor<#731696>\\OutlineWidth[3]\"I'm sorry...\""]},{"code":101,"indent":0,"parameters":["",0,2,2,""]},{"code":401,"indent":0,"parameters":["\\HexColor<#ffffff>\\OutlineHexColor<#731696>\\OutlineWidth[3]In utter dismay, Ayano crumbled to the floor, squatting down and hastily "]},{"code":401,"indent":0,"parameters":["covering her head with her hands."]},{"code":231,"indent":0,"parameters":[1,"CG/EV03_02",0,0,0,0,67,67,255,0]},{"code":101,"indent":0,"parameters":["",0,2,2,"\\HexColor<#ffffff>\\OutlineHexColor<#731696>\\OutlineWidth[3]Ayano"]},{"code":401,"indent":0,"parameters":["\\HexColor<#ffffff>\\OutlineHexColor<#731696>\\OutlineWidth[3]\"No, no, no! I didn't want you to see this... no!\""]},{"code":101,"indent":0,"parameters":["",0,2,2,""]},{"code":401,"indent":0,"parameters":["\\HexColor<#ffffff>\\OutlineHexColor<#731696>\\OutlineWidth[3]You tried your best to comfort her in this awkward situation."]},{"code":101,"indent":0,"parameters":["",0,2,2,"\\HexColor<#ffffff>\\OutlineHexColor<#731696>\\OutlineWidth[3]\\n[1]"]},{"code":401,"indent":0,"parameters":["\\HexColor<#ffffff>\\OutlineHexColor<#731696>\\OutlineWidth[3]\"Ayano, it's completely okay to have hobbies like that. Loving pornography "]},{"code":401,"indent":0,"parameters":["doesn't make you a bad person. I won't judge you.\""]},{"code":101,"indent":0,"parameters":["",0,2,2,""]},{"code":401,"indent":0,"parameters":["\\HexColor<#ffffff>\\OutlineHexColor<#731696>\\OutlineWidth[3]But Ayano quickly stood up again, her face turned towards the ceiling as "]},{"code":401,"indent":0,"parameters":["she let out a desperate scream."]},{"code":231,"indent":0,"parameters":[1,"CG/EV03_03",0,0,0,0,67,67,255,0]},{"code":225,"indent":0,"parameters":[9,6,60,false]},{"code":101,"indent":0,"parameters":["",0,2,2,"\\HexColor<#ffffff>\\OutlineHexColor<#731696>\\OutlineWidth[3]Ayano"]},{"code":401,"indent":0,"parameters":["\\HexColor<#ffffff>\\OutlineHexColor<#731696>\\OutlineWidth[3]\"AaaaaaaAAAAAAA!!!\""]},{"code":101,"indent":0,"parameters":["",0,2,2,""]},{"code":401,"indent":0,"parameters":["\\HexColor<#ffffff>\\OutlineHexColor<#731696>\\OutlineWidth[3]It wasn't a cry of anger but one of embarrassment and despair."]},{"code":101,"indent":0,"parameters":["",0,2,2,""]},{"code":401,"indent":0,"parameters":["\\HexColor<#ffffff>\\OutlineHexColor<#731696>\\OutlineWidth[3]Once she had exhausted herself, she collapsed onto the floor. You rushed "]},{"code":401,"indent":0,"parameters":["over to help her but were stopped by another yell from Ayano."]},{"code":231,"indent":0,"parameters":[1,"CG/EV03_04",0,0,0,0,67,67,255,0]},{"code":101,"indent":0,"parameters":["",0,2,2,"\\HexColor<#ffffff>\\OutlineHexColor<#731696>\\OutlineWidth[3]Ayano"]},{"code":401,"indent":0,"parameters":["\\HexColor<#ffffff>\\OutlineHexColor<#731696>\\OutlineWidth[3]\"NO! No! It's all over for me!\""]},{"code":101,"indent":0,"parameters":["",0,2,2,""]},{"code":401,"indent":0,"parameters":["\\HexColor<#ffffff>\\OutlineHexColor<#731696>\\OutlineWidth[3]She was crying hysterically now; her whole body trembling uncontrollably. "]},{"code":401,"indent":0,"parameters":["You tried getting closer but Ayano feverishly pushed you away."]},{"code":231,"indent":0,"parameters":[1,"CG/EV03_05",0,0,0,0,67,67,255,0]},{"code":101,"indent":0,"parameters":["",0,2,2,"\\HexColor<#ffffff>\\OutlineHexColor<#731696>\\OutlineWidth[3]Ayano"]},{"code":401,"indent":0,"parameters":["\\HexColor<#ffffff>\\OutlineHexColor<#731696>\\OutlineWidth[3]\"Leave me alone! I beg of you, Little Pal. Just leave me alone.\""]},{"code":101,"indent":0,"parameters":["",0,2,2,"\\HexColor<#ffffff>\\OutlineHexColor<#731696>\\OutlineWidth[3]\\n[1]"]},{"code":401,"indent":0,"parameters":["\\HexColor<#ffffff>\\OutlineHexColor<#731696>\\OutlineWidth[3]\"But I can't just leave when you're like this!\""]},{"code":101,"indent":0,"parameters":["",0,2,2,""]},{"code":401,"indent":0,"parameters":["\\HexColor<#ffffff>\\OutlineHexColor<#731696>\\OutlineWidth[3]However, at your words Ayano lifted her tear-streaked face from the floor – "]},{"code":401,"indent":0,"parameters":["an image of absolute despair – and shouted again."]},{"code":225,"indent":0,"parameters":[9,6,60,false]},{"code":101,"indent":0,"parameters":["",0,2,2,"\\HexColor<#ffffff>\\OutlineHexColor<#731696>\\OutlineWidth[3]Ayano"]},{"code":401,"indent":0,"parameters":["\\HexColor<#ffffff>\\OutlineHexColor<#731696>\\OutlineWidth[3]\"LEAVE!!!\""]},{"code":235,"indent":0,"parameters":[1]},{"code":235,"indent":0,"parameters":[80]},{"code":205,"indent":0,"parameters":[0,{"list":[{"code":29,"parameters":[5],"indent":null},{"code":1,"indent":null},{"code":1,"indent":null},{"code":2,"indent":null},{"code":1,"indent":null},{"code":1,"indent":null},{"code":1,"indent":null},{"code":0}],"repeat":false,"skippable":false,"wait":true}]},{"code":505,"indent":0,"parameters":[{"code":29,"parameters":[5],"indent":null}]},{"code":505,"indent":0,"parameters":[{"code":1,"indent":null}]},{"code":505,"indent":0,"parameters":[{"code":1,"indent":null}]},{"code":505,"indent":0,"parameters":[{"code":2,"indent":null}]},{"code":505,"indent":0,"parameters":[{"code":1,"indent":null}]},{"code":505,"indent":0,"parameters":[{"code":1,"indent":null}]},{"code":505,"indent":0,"parameters":[{"code":1,"indent":null}]},{"code":221,"indent":0,"parameters":[]},{"code":250,"indent":0,"parameters":[{"name":"Close1","volume":60,"pitch":100,"pan":0}]},{"code":101,"indent":0,"parameters":["",0,2,2,""]},{"code":401,"indent":0,"parameters":["\\HexColor<#ffffff>\\OutlineHexColor<#731696>\\OutlineWidth[3]Seeing no other option and fearing for her mental state if you stayed "]},{"code":401,"indent":0,"parameters":["any longer, you quickly retreated from the room and left the store."]},{"code":101,"indent":0,"parameters":["",0,2,2,""]},{"code":401,"indent":0,"parameters":["\\HexColor<#ffffff>\\OutlineHexColor<#731696>\\OutlineWidth[3]Only then did you realize that you still held a piece of fabric belonging "]},{"code":401,"indent":0,"parameters":["to Ayano in your hand which you swiftly concealed from prying eyes as "]},{"code":401,"indent":0,"parameters":["passersby walked past."]},{"code":211,"indent":0,"parameters":[1]},{"code":121,"indent":0,"parameters":[26,26,0]},{"code":121,"indent":0,"parameters":[25,25,0]},{"code":121,"indent":0,"parameters":[6,6,0]},{"code":121,"indent":0,"parameters":[10,10,0]},{"code":108,"indent":0,"parameters":["### END ###"]},{"code":101,"indent":0,"parameters":["",0,2,2,""]},{"code":401,"indent":0,"parameters":["\\HexColor<#FFD700>\\OutlineHexColor<#731696>\\OutlineWidth[3]You had gained 20 coins."]},{"code":122,"indent":0,"parameters":[24,24,1,0,20]},{"code":125,"indent":0,"parameters":[0,0,20]},{"code":101,"indent":0,"parameters":["",0,2,2,""]},{"code":401,"indent":0,"parameters":["\\HexColor<#D90166>\\OutlineHexColor<#731696>\\OutlineWidth[3]+1 Ayano Affection."]},{"code":235,"indent":0,"parameters":[80]},{"code":122,"indent":0,"parameters":[48,48,1,0,1]},{"code":101,"indent":0,"parameters":["",0,2,2,""]},{"code":401,"indent":0,"parameters":["\\HexColor<#FF66CC>You obtained Ayano's Panties."]},{"code":126,"indent":0,"parameters":[166,0,0,1]},{"code":121,"indent":0,"parameters":[152,152,0]},{"code":121,"indent":0,"parameters":[28,28,1]},{"code":108,"indent":0,"parameters":["### END ###"]},{"code":122,"indent":0,"parameters":[21,21,0,0,10]},{"code":222,"indent":0,"parameters":[]},{"code":201,"indent":0,"parameters":[0,1,12,17,8,1]},{"code":0,"indent":0,"parameters":[]}],"moveFrequency":3,"moveRoute":{"list":[{"code":0,"parameters":[]}],"repeat":true,"skippable":false,"wait":false},"moveSpeed":4,"moveType":3,"priorityType":1,"stepAnime":false,"through":true,"trigger":3,"walkAnime":true}],"x":10,"y":11},
{"id":3,"name":"Ayano","note":"","pages":[{"conditions":{"actorId":1,"actorValid":false,"itemId":1,"itemValid":false,"selfSwitchCh":"A","selfSwitchValid":false,"switch1Id":24,"switch1Valid":false,"switch2Id":1,"switch2Valid":false,"variableId":1,"variableValid":false,"variableValue":0},"directionFix":false,"image":{"tileId":0,"characterName":"SF_Actor2","direction":2,"pattern":1,"characterIndex":1},"list":[{"code":0,"indent":0,"parameters":[]}],"moveFrequency":3,"moveRoute":{"list":[{"code":0,"parameters":[]}],"repeat":true,"skippable":false,"wait":false},"moveSpeed":4,"moveType":1,"priorityType":1,"stepAnime":false,"through":true,"trigger":0,"walkAnime":true}],"x":10,"y":12},
null,
null,
null,
null,
null,
null,
null,
null,
null,
null,
null,
null,
null
]
}