{
	"Type": "Live2D Expression",
	"Parameters": [
		{
			"Id": "EyeballSize",
			"Value": 1,
			"Blend": "Overwrite"
		},
		{
			"Id": "e_NormalEyes",
			"Value": 1,
			"Blend": "Overwrite"
		},
		{
			"Id": "e_AngryEyes",
			"Value": 0,
			"Blend": "Overwrite"
		},
		{
			"Id": "e_SurpriseEyes",
			"Value": 0,
			"Blend": "Overwrite"
		},
		{
			"Id": "e_CrossEyes",
			"Value": 0,
			"Blend": "Overwrite"
		},
		{
			"Id": "spotlight_switch",
			"Value": 1,
			"Blend": "Overwrite"
		},
		{
			"Id": "StarEyes",
			"Value": 0,
			"Blend": "Overwrite"
		},
		{
			"Id": "HeartEyes",
			"Value": 0,
			"Blend": "Overwrite"
		},
		{
			"Id": "TiredEyes",
			"Value": 0,
			"Blend": "Overwrite"
		},
		{
			"Id": "fx_Blush",
			"Value": 0,
			"Blend": "Overwrite"
		},
		{
			"Id": "fx_Angry_n_drop",
			"Value": 0,
			"Blend": "Overwrite"
		},
		{
			"Id": "fx_Tears",
			"Value": 0,
			"Blend": "Overwrite"
		},
		{
			"Id": "fx_FaceShadow",
			"Value": 0,
			"Blend": "Overwrite"
		},
		{
			"Id": "fx_Disgust",
			"Value": 0,
			"Blend": "Overwrite"
		},
		{
			"Id": "fx_Hopeless",
			"Value": 0,
			"Blend": "Overwrite"
		}
	]
}