{
	"Type": "Live2D Expression",
	"FadeInTime": 1.5,
	"Parameters": [
		{
			"Id": "ParamEyeLOpen",
			"Value": 0.7,
			"Blend": "Overwrite"
		},
		{
			"Id": "ParamEyeROpen",
			"Value": 1.02,
			"Blend": "Overwrite"
		},
		{
			"Id": "ParamBrowLAngle",
			"Value": -0.308,
			"Blend": "Overwrite"
		},
		{
			"Id": "ParamBrowRForm",
			"Value": -1,
			"Blend": "Overwrite"
		},
		{
			"Id": "ParamBrowLForm",
			"Value": 0.233,
			"Blend": "Overwrite"
		},
		{
			"Id": "ParamBrowRAngle",
			"Value": -0.353,
			"Blend": "Overwrite"
		},
		{
			"Id": "m_Neutral01",
			"Value": 0,
			"Blend": "Overwrite"
		},
		{
			"Id": "m_Surprise01",
			"Value": 0,
			"Blend": "Overwrite"
		},
		{
			"Id": "EyeballSize",
			"Value": 0.75,
			"Blend": "Overwrite"
		},
		{
			"Id": "m_Annoyed02",
			"Value": 1,
			"Blend": "Overwrite"
		},
		{
			"Id": "ParamAngleX",
			"Value": 0,
			"Blend": "Overwrite"
		},
		{
			"Id": "Angle_X_Alt",
			"Value": 0,
			"Blend": "Overwrite"
		},
		{
			"Id": "ParamAngleY",
			"Value": 0,
			"Blend": "Overwrite"
		},
		{
			"Id": "Angle_Y_Alt",
			"Value": 0,
			"Blend": "Overwrite"
		},
		{
			"Id": "ParamAngleZ",
			"Value": 0,
			"Blend": "Overwrite"
		},
		{
			"Id": "Angle_Z_Alt",
			"Value": 0,
			"Blend": "Overwrite"
		},
		{
			"Id": "ParamEyeLSmile",
			"Value": 0,
			"Blend": "Overwrite"
		},
		{
			"Id": "ParamEyeRSmile",
			"Value": 0,
			"Blend": "Overwrite"
		},
		{
			"Id": "ParamEyeBallX",
			"Value": 0,
			"Blend": "Overwrite"
		},
		{
			"Id": "ParamEyeBallY",
			"Value": 0,
			"Blend": "Overwrite"
		},
		{
			"Id": "spotlight_switch",
			"Value": 1,
			"Blend": "Overwrite"
		},
		{
			"Id": "e_NormalEyes",
			"Value": 1,
			"Blend": "Overwrite"
		},
		{
			"Id": "e_AngryEyes",
			"Value": 0,
			"Blend": "Overwrite"
		},
		{
			"Id": "e_SurpriseEyes",
			"Value": 0,
			"Blend": "Overwrite"
		},
		{
			"Id": "e_CrossEyes",
			"Value": 0,
			"Blend": "Overwrite"
		},
		{
			"Id": "ParamBrowLY",
			"Value": 0,
			"Blend": "Overwrite"
		},
		{
			"Id": "ParamBrowRY",
			"Value": 0,
			"Blend": "Overwrite"
		},
		{
			"Id": "m_Open01",
			"Value": 0,
			"Blend": "Overwrite"
		},
		{
			"Id": "m_Open02",
			"Value": 0,
			"Blend": "Overwrite"
		},
		{
			"Id": "m_Open03",
			"Value": 0,
			"Blend": "Overwrite"
		},
		{
			"Id": "m_Open04",
			"Value": 0,
			"Blend": "Overwrite"
		},
		{
			"Id": "m_Open05",
			"Value": 0,
			"Blend": "Overwrite"
		},
		{
			"Id": "m_Annoyed01",
			"Value": 0,
			"Blend": "Overwrite"
		},
		{
			"Id": "m_Annoyed03",
			"Value": 0,
			"Blend": "Overwrite"
		},
		{
			"Id": "m_Happy01",
			"Value": 0,
			"Blend": "Overwrite"
		},
		{
			"Id": "m_Smug01",
			"Value": 0,
			"Blend": "Overwrite"
		},
		{
			"Id": "m_Smug02",
			"Value": 0,
			"Blend": "Overwrite"
		}
	]
}