{
	"Type": "Live2D Expression",
	"FadeInTime": 1.5,
	"Parameters": [
		{
			"Id": "EyeballSize",
			"Value": 1,
			"Blend": "Overwrite"
		},
		{
			"Id": "spotlight_switch",
			"Value": 1,
			"Blend": "Overwrite"
		},
		{
			"Id": "e_NormalEyes",
			"Value": 0,
			"Blend": "Overwrite"
		},
		{
			"Id": "e_AngryEyes",
			"Value": 0,
			"Blend": "Overwrite"
		},
		{
			"Id": "e_SurpriseEyes",
			"Value": 1,
			"Blend": "Overwrite"
		},
		{
			"Id": "e_CrossEyes",
			"Value": 0,
			"Blend": "Overwrite"
		}
	]
}