{
	"Type": "Live2D Expression",
	"FadeInTime": 1.5,
	"Parameters": [
		{
			"Id": "StarEyes",
			"Value": 1,
			"Blend": "Overwrite"
		},
		{
			"Id": "HeartEyes",
			"Value": 0,
			"Blend": "Overwrite"
		},
		{
			"Id": "TiredEyes",
			"Value": 0,
			"Blend": "Overwrite"
		},
		{
			"Id": "fx_Blush",
			"Value": 0,
			"Blend": "Overwrite"
		},
		{
			"Id": "fx_Angry_n_drop",
			"Value": 0,
			"Blend": "Overwrite"
		},
		{
			"Id": "fx_Tears",
			"Value": 0,
			"Blend": "Overwrite"
		},
		{
			"Id": "fx_FaceShadow",
			"Value": 0,
			"Blend": "Overwrite"
		},
		{
			"Id": "fx_Disgust",
			"Value": 0,
			"Blend": "Overwrite"
		},
		{
			"Id": "fx_Hopeless",
			"Value": 0,
			"Blend": "Overwrite"
		}
	]
}