{
	"Version": 3,
	"FileReferences": {
		"Moc": "HanaL2D.moc3",
		"Textures": [
			"HanaL2D.4096/texture_00.png"
		],
		"Physics": "HanaL2D.physics3.json",
		"Pose": "hanal2d.pose3.json",
		"DisplayInfo": "HanaL2D.cdi3.json",
		"Expressions": [
			{
				"Name": "f01",
				"File": "f01.exp3.json"
			},
			{
				"Name": "f02",
				"File": "f02.exp3.json"
			},
			{
				"Name": "Exp_Default",
				"File": "Exp_Default.exp3.json"
			},
			{
				"Name": "Exp_Eyes_Default",
				"File": "Exp_Eyes_Default.exp3.json"
			},
			{
				"Name": "ExpFX_Default",
				"File": "ExpFX_Default.exp3.json"
			},
			{
				"Name": "Eyeballs_S",
				"File": "Eyeballs_S.exp3.json"
			},
			{
				"Name": "Eye_Highlights",
				"File": "Eye_Highlights.exp3.json"
			},
			{
				"Name": "Eye_Surprise",
				"File": "Eye_Surprise.exp3.json"
			},
			{
				"Name": "Eye_XD",
				"File": "Eye_XD.exp3.json"
			},
			{
				"Name": "FX_Blush",
				"File": "FX_Blush.exp3.json"
			},
			{
				"Name": "FX_Angry",
				"File": "FX_Angry.exp3.json"
			},
			{
				"Name": "FX_sweat",
				"File": "FX_Sweat.exp3.json"
			},
			{
				"Name": "FX_HeartEyes",
				"File": "FX_HeartEyes.exp3.json"
			},
			{
				"Name": "FX_StarEyes",
				"File": "FX_StarEyes.exp3.json"
			},
			{
				"Name": "FX_Tears",
				"File": "FX_tears.exp3.json"
			},
			{
				"Name": "FX_FaceShadow",
				"File": "FX_FaceShadow.exp3.json"
			},
			{
				"Name": "FX_Disgust",
				"File": "FX_Disgust.exp3.json"
			},
			{
				"Name": "FX_Hopeless",
				"File": "FX_Hopeless.exp3.json"
			},
			{
				"Name": "FX_TiredEyes",
				"File": "FX_TiredEyes.exp3.json"
			},
			{
				"Name": "Exp_Happy",
				"File": "Exp_Happy.exp3.json"
			},
			{
				"Name": "Exp_Annoyed",
				"File": "Exp_Annoyed.exp3.json"
			},
			{
				"Name": "Exp_Surprise",
				"File": "Exp_Surprise.exp3.json"
			},
			{
				"Name": "Exp_Smug",
				"File": "Exp_Smug.exp3.json"
			},
			{
				"Name": "Exp_Annoyed_02",
				"File": "Exp_Annoyed_02.exp3.json"
			},
			{
				"Name": "Exp_Surprise_02",
				"File": "Exp_Surprise_02.exp3.json"
			},
			{
				"Name": "Exp_Mischievous",
				"File": "Exp_Mischievous.exp3.json"
			},
			{
				"Name": "Exp_XD",
				"File": "Exp_XD.exp3.json"
			},
			{
				"Name": "Exp_Sad",
				"File": "Exp_Sad.exp3.json"
			},
			{
				"Name": "Exp_Sad_02",
				"File": "Exp_Sad_02.exp3.json"
			},
			{
				"Name": "Exp_Happy_02",
				"File": "Exp_Happy_02.exp3.json"
			},
			{
				"Name": "Exp_Curious",
				"File": "Exp_Curious.exp3.json"
			},
			{
				"Name": "Exp_Disbelief",
				"File": "Exp_Disbelief.exp3.json"
			},
			{
				"Name": "Exp_Wut",
				"File": "Exp_Wut.exp3.json"
			},
			{
				"Name": "Exp_LookAtViewer",
				"File": "Exp_LookAtViewer.exp3.json"
			},
			{
				"Name": "Exp_Yandere",
				"File": "Exp_Yandere.exp3.json"
			},
			{
				"Name": "Exp_Tired",
				"File": "Exp_Tired.exp3.json"
			},
			{
				"Name": "Exp_Casual",
				"File": "Exp_Casual.exp3.json"
			},
			{
				"Name": "Exp_Casual_02",
				"File": "Exp_Casual_02.exp3.json"
			},
			{
				"Name": "Exp_Casual_03",
				"File": "Exp_Casual_03.exp3.json"
			},
			{
				"Name": "Exp_Surprise_03",
				"File": "Exp_Surprise_03.exp3.json"
			},
			{
				"Name": "Exp_Casual_04",
				"File": "Exp_Casual_04.exp3.json"
			},
			{
				"Name": "Mouth_Default",
				"File": "Mouth_Default.exp3.json"
			},
			{
				"Name": "Mouth_Open01",
				"File": "Mouth_Open01.exp3.json"
			},
			{
				"Name": "Mouth_Open02",
				"File": "Mouth_Open02.exp3.json"
			},
			{
				"Name": "Mouth_Open03",
				"File": "Mouth_Open03.exp3.json"
			},
			{
				"Name": "Mouth_Open04",
				"File": "Mouth_Open04.exp3.json"
			},
			{
				"Name": "Mouth_Open05",
				"File": "Mouth_Open05.exp3.json"
			},
			{
				"Name": "Mouth_Annoyed01",
				"File": "Mouth_Annoyed01.exp3.json"
			},
			{
				"Name": "Mouth_Annoyed02",
				"File": "Mouth_Annoyed02.exp3.json"
			},
			{
				"Name": "Mouth_Annoyed03",
				"File": "Mouth_Annoyed03.exp3.json"
			},
			{
				"Name": "Mouth_Happy",
				"File": "Mouth_Happy.exp3.json"
			},
			{
				"Name": "Mouth_Surprise01",
				"File": "Mouth_Surprise01.exp3.json"
			},
			{
				"Name": "Brows_Default",
				"File": "Brows_Default.exp3.json"
			},
			{
				"Name": "Brows_Up",
				"File": "Brows_Up.exp3.json"
			},
			{
				"Name": "Brows_Sad",
				"File": "Brows_Sad.exp3.json"
			},
			{
				"Name": "Brows_Angry",
				"File": "Brows_Angry.exp3.json"
			},
			{
				"Name": "Brows_Center",
				"File": "Brows_Center.exp3.json"
			},
			{
				"Name": "Eye_Closed",
				"File": "Eye_Closed.exp3.json"
			},
			{
				"Name": "Eye_HalfClosed",
				"File": "Eye_HalfClosed.exp3.json"
			},
			{
				"Name": "Eye_LookAtRight",
				"File": "Eye_LookAtRight.exp3.json"
			},
			{
				"Name": "Eye_LookAtLeft",
				"File": "Eye_LookAtLeft.exp3.json"
			},
			{
				"Name": "Eye_LookUp",
				"File": "Eye_LookUp.exp3.json"
			},
			{
				"Name": "Eye_LookDown",
				"File": "Eye_LookDown.exp3.json"
			},
			{
				"Name": "Outfit_Default",
				"File": "Outfit_Default.exp3.json"
			},
			{
				"Name": "Outfit_Pantyhose_off",
				"File": "Outfit_Pantyhose_off.exp3.json"
			},
			{
				"Name": "Outfit_Pantyhose_on",
				"File": "Outfit_Pantyhose_on.exp3.json"
			},
			{
				"Name": "Outfit_Underwear",
				"File": "Outfit_Underwear.exp3.json"
			},
			{
				"Name": "Outfit_ArmR_02",
				"File": "Outfit_ArmR_02.exp3.json"
			},
			{
				"Name": "Outfit_ArmR_01",
				"File": "Outfit_ArmR_01.exp3.json"
			},
			{
				"Name": "Outfit_ArmL_OpenBlouse",
				"File": "Outfit_ArmL_OpenBlouse.exp3.json"
			},
			{
				"Name": "Outfit_ArmL_01",
				"File": "Outfit_ArmL_01.exp3.json"
			},
			{
				"Name": "Exp_Default_All",
				"File": "Exp_Default_All.exp3.json"
			},
			{
				"Name": "Outfit_Underwear_off",
				"File": "Outfit_Underwear_off.exp3.json"
			},
			{
				"Name": "Outfit_Underwear_on",
				"File": "Outfit_Underwear_on.exp3.json"
			},
			{
				"Name": "Outfit_naked",
				"File": "Outfit_naked.exp3.json"
			},
			{
				"Name": "Outfit_ShowPanties_on",
				"File": "Outfit_ShowPanties_on.exp3.json"
			},
			{
				"Name": "Outfit_ShowPanties_off",
				"File": "Outfit_ShowPanties_off.exp3.json"
			}
		],
		"Motions": {
			"BodyMove": [
				{
					"File": "anim/Anim_BodySwing.motion3.json"
				}
			],
			"Idle": [
				{
					"File": "anim/Anim_Sad.motion3.json"
				},
				{
					"File": "Touch01.motion3.json",
					"FadeInTime": 0.5
				}
			]
		}
	},
	"Groups": [
		{
			"Target": "Parameter",
			"Name": "LipSync",
			"Ids": []
		},
		{
			"Target": "Parameter",
			"Name": "EyeBlink",
			"Ids": [
				"ParamEyeLOpen",
				"ParamEyeROpen"
			]
		}
	],
	"HitAreas": []
}