{
	"Version": 3,
	"Parameters": [
		{
			"Id": "ParamAngleX",
			"GroupId": "ParamGroup",
			"Name": "Angle X"
		},
		{
			"Id": "Angle_X_Alt",
			"GroupId": "ParamGroup",
			"Name": "Angle X Alt"
		},
		{
			"Id": "ParamAngleY",
			"GroupId": "ParamGroup",
			"Name": "Angle Y"
		},
		{
			"Id": "Angle_Y_Alt",
			"GroupId": "ParamGroup",
			"Name": "Angle Y Alt"
		},
		{
			"Id": "ParamAngleZ",
			"GroupId": "ParamGroup",
			"Name": "Angle Z"
		},
		{
			"Id": "Angle_Z_Alt",
			"GroupId": "ParamGroup",
			"Name": "Angle Z Alt"
		},
		{
			"Id": "augangley",
			"GroupId": "ParamGroup2",
			"Name": "Aug Angle Y"
		},
		{
			"Id": "auganglez",
			"GroupId": "ParamGroup2",
			"Name": "Aug Angle Z"
		},
		{
			"Id": "augbodyx",
			"GroupId": "ParamGroup2",
			"Name": "Aug Body X"
		},
		{
			"Id": "augbodyy",
			"GroupId": "ParamGroup2",
			"Name": "Aug Body Y"
		},
		{
			"Id": "ParamEyeLOpen",
			"GroupId": "ParamGroup3",
			"Name": "EyeL Open"
		},
		{
			"Id": "ParamEyeLSmile",
			"GroupId": "ParamGroup3",
			"Name": "EyeL Smile"
		},
		{
			"Id": "ParamEyeROpen",
			"GroupId": "ParamGroup3",
			"Name": "EyeR Open"
		},
		{
			"Id": "ParamEyeRSmile",
			"GroupId": "ParamGroup3",
			"Name": "EyeR Smile"
		},
		{
			"Id": "ParamEyeBallX",
			"GroupId": "ParamGroup3",
			"Name": "Eyeball X"
		},
		{
			"Id": "ParamEyeBallY",
			"GroupId": "ParamGroup3",
			"Name": "Eyeball Y"
		},
		{
			"Id": "EyeballSize",
			"GroupId": "ParamGroup3",
			"Name": "Eyeball size"
		},
		{
			"Id": "spotlight_switch",
			"GroupId": "ParamGroup3",
			"Name": "Highlight ON-OFF"
		},
		{
			"Id": "e_NormalEyes",
			"GroupId": "ParamGroup3",
			"Name": "e_NormalEyes"
		},
		{
			"Id": "e_AngryEyes",
			"GroupId": "ParamGroup3",
			"Name": "e_AngryEyes"
		},
		{
			"Id": "e_SurpriseEyes",
			"GroupId": "ParamGroup3",
			"Name": "e_SurpriseEyes"
		},
		{
			"Id": "e_CrossEyes",
			"GroupId": "ParamGroup3",
			"Name": "e_CrossEyes"
		},
		{
			"Id": "ParamBrowLY",
			"GroupId": "ParamGroup4",
			"Name": "BrowL Y"
		},
		{
			"Id": "ParamBrowRY",
			"GroupId": "ParamGroup4",
			"Name": "BrowR Y"
		},
		{
			"Id": "ParamBrowLAngle",
			"GroupId": "ParamGroup4",
			"Name": "BrowL Angle"
		},
		{
			"Id": "ParamBrowRAngle",
			"GroupId": "ParamGroup4",
			"Name": "BrowR Angle"
		},
		{
			"Id": "ParamBrowLForm",
			"GroupId": "ParamGroup4",
			"Name": "BrowL Form"
		},
		{
			"Id": "ParamBrowRForm",
			"GroupId": "ParamGroup4",
			"Name": "BrowR Form"
		},
		{
			"Id": "ParamMouthForm",
			"GroupId": "ParamGroup5",
			"Name": "Mouth Form"
		},
		{
			"Id": "ParamMouthOpenY",
			"GroupId": "ParamGroup5",
			"Name": "Mouth Open"
		},
		{
			"Id": "ParamMouthX",
			"GroupId": "ParamGroup5",
			"Name": "MouthX"
		},
		{
			"Id": "m_Neutral01",
			"GroupId": "ParamGroup5",
			"Name": "m_Neutral01"
		},
		{
			"Id": "m_Open01",
			"GroupId": "ParamGroup5",
			"Name": "m_Open01"
		},
		{
			"Id": "m_Open02",
			"GroupId": "ParamGroup5",
			"Name": "m_Open02"
		},
		{
			"Id": "m_Open03",
			"GroupId": "ParamGroup5",
			"Name": "m_Open03"
		},
		{
			"Id": "m_Open04",
			"GroupId": "ParamGroup5",
			"Name": "m_Open04"
		},
		{
			"Id": "m_Open05",
			"GroupId": "ParamGroup5",
			"Name": "m_Open05"
		},
		{
			"Id": "m_Annoyed01",
			"GroupId": "ParamGroup5",
			"Name": "m_Annoyed01"
		},
		{
			"Id": "m_Annoyed02",
			"GroupId": "ParamGroup5",
			"Name": "m_Annoyed02"
		},
		{
			"Id": "m_Annoyed03",
			"GroupId": "ParamGroup5",
			"Name": "m_Annoyed03"
		},
		{
			"Id": "m_Happy01",
			"GroupId": "ParamGroup5",
			"Name": "m_Happy01"
		},
		{
			"Id": "m_Smug01",
			"GroupId": "ParamGroup5",
			"Name": "m_Smug01"
		},
		{
			"Id": "m_Smug02",
			"GroupId": "ParamGroup5",
			"Name": "m_Smug02"
		},
		{
			"Id": "m_Surprise01",
			"GroupId": "ParamGroup5",
			"Name": "m_Surprise01"
		},
		{
			"Id": "mouthtype",
			"GroupId": "ParamGroup5",
			"Name": "Mouth Type Toggle"
		},
		{
			"Id": "Body_X_Alt",
			"GroupId": "ParamGroup6",
			"Name": "Body X Alt"
		},
		{
			"Id": "Body_Y_Alt",
			"GroupId": "ParamGroup6",
			"Name": "Body Y Alt"
		},
		{
			"Id": "Body_Z_Alt",
			"GroupId": "ParamGroup6",
			"Name": "Body Z Alt"
		},
		{
			"Id": "ParamBodyAngleX",
			"GroupId": "ParamGroup6",
			"Name": "Body X"
		},
		{
			"Id": "ParamBodyAngleY",
			"GroupId": "ParamGroup6",
			"Name": "Body Y"
		},
		{
			"Id": "ParamBodyAngleZ",
			"GroupId": "ParamGroup6",
			"Name": "Body Z"
		},
		{
			"Id": "ParamBreath",
			"GroupId": "ParamGroup6",
			"Name": "Breathing"
		},
		{
			"Id": "Param38",
			"GroupId": "ParamGroup6",
			"Name": "Boob X"
		},
		{
			"Id": "Param37",
			"GroupId": "ParamGroup6",
			"Name": "Boob Y"
		},
		{
			"Id": "Param39",
			"GroupId": "ParamGroup6",
			"Name": "Boob X2"
		},
		{
			"Id": "c_Pantyhose",
			"GroupId": "ParamGroup11",
			"Name": "c_Pantyhose"
		},
		{
			"Id": "c_Underwear01",
			"GroupId": "ParamGroup11",
			"Name": "c_Underwear01"
		},
		{
			"Id": "c_Outfit01",
			"GroupId": "ParamGroup11",
			"Name": "c_Outfit01"
		},
		{
			"Id": "Arm_R_02",
			"GroupId": "ParamGroup11",
			"Name": "Arm_R_02"
		},
		{
			"Id": "c_Blouse_Open",
			"GroupId": "ParamGroup11",
			"Name": "c_Blouse_Open"
		},
		{
			"Id": "c_ShowPanties",
			"GroupId": "ParamGroup11",
			"Name": "c_ShowPanties"
		},
		{
			"Id": "StarEyes",
			"GroupId": "ParamGroup7",
			"Name": "StarEyes"
		},
		{
			"Id": "HeartEyes",
			"GroupId": "ParamGroup7",
			"Name": "HeartEyes"
		},
		{
			"Id": "TiredEyes",
			"GroupId": "ParamGroup7",
			"Name": "TiredEyes"
		},
		{
			"Id": "fx_Blush",
			"GroupId": "ParamGroup7",
			"Name": "fx_Blush"
		},
		{
			"Id": "fx_Angry_n_drop",
			"GroupId": "ParamGroup7",
			"Name": "fx_Angry_n_drop"
		},
		{
			"Id": "fx_Tears",
			"GroupId": "ParamGroup7",
			"Name": "fx_Tears"
		},
		{
			"Id": "fx_FaceShadow",
			"GroupId": "ParamGroup7",
			"Name": "fx_FaceShadow"
		},
		{
			"Id": "fx_Disgust",
			"GroupId": "ParamGroup7",
			"Name": "fx_Disgust"
		},
		{
			"Id": "fx_Hopeless",
			"GroupId": "ParamGroup7",
			"Name": "fx_Hopeless"
		},
		{
			"Id": "Skirt_A1",
			"GroupId": "ParamGroup8",
			"Name": "Skirt_A1"
		},
		{
			"Id": "Skirt_A2",
			"GroupId": "ParamGroup8",
			"Name": "Skirt_A2"
		},
		{
			"Id": "Param_Angle_Rotation_1_ArtMesh61",
			"GroupId": "ParamGroup9",
			"Name": "[0]Layer 288"
		},
		{
			"Id": "Param_Angle_Rotation_2_ArtMesh61",
			"GroupId": "ParamGroup9",
			"Name": "[1]Layer 288"
		},
		{
			"Id": "Param_Angle_Rotation_3_ArtMesh61",
			"GroupId": "ParamGroup9",
			"Name": "[2]Layer 288"
		},
		{
			"Id": "Param_Angle_Rotation_4_ArtMesh61",
			"GroupId": "ParamGroup9",
			"Name": "[3]Layer 288"
		},
		{
			"Id": "Param_Angle_Rotation_5_ArtMesh61",
			"GroupId": "ParamGroup9",
			"Name": "[4]Layer 288"
		},
		{
			"Id": "Param_Angle_Rotation_1_ArtMesh60",
			"GroupId": "ParamGroup10",
			"Name": "[0]Layer 287"
		},
		{
			"Id": "Param_Angle_Rotation_2_ArtMesh60",
			"GroupId": "ParamGroup10",
			"Name": "[1]Layer 287"
		},
		{
			"Id": "Param_Angle_Rotation_3_ArtMesh60",
			"GroupId": "ParamGroup10",
			"Name": "[2]Layer 287"
		},
		{
			"Id": "Param_Angle_Rotation_4_ArtMesh60",
			"GroupId": "ParamGroup10",
			"Name": "[3]Layer 287"
		},
		{
			"Id": "Param_Angle_Rotation_5_ArtMesh60",
			"GroupId": "ParamGroup10",
			"Name": "[4]Layer 287"
		},
		{
			"Id": "Param_Angle_Rotation_1_ArtMesh44",
			"GroupId": "ParamGroup12",
			"Name": "[0]Layer 292"
		},
		{
			"Id": "Param_Angle_Rotation_2_ArtMesh44",
			"GroupId": "ParamGroup12",
			"Name": "[1]Layer 292"
		},
		{
			"Id": "Param_Angle_Rotation_3_ArtMesh44",
			"GroupId": "ParamGroup12",
			"Name": "[2]Layer 292"
		},
		{
			"Id": "Param_Angle_Rotation_4_ArtMesh44",
			"GroupId": "ParamGroup12",
			"Name": "[3]Layer 292"
		},
		{
			"Id": "Param_Angle_Rotation_5_ArtMesh44",
			"GroupId": "ParamGroup12",
			"Name": "[4]Layer 292"
		},
		{
			"Id": "Param_Angle_Rotation_1_ArtMesh45",
			"GroupId": "ParamGroup13",
			"Name": "[0]Layer 293"
		},
		{
			"Id": "Param_Angle_Rotation_2_ArtMesh45",
			"GroupId": "ParamGroup13",
			"Name": "[1]Layer 293"
		},
		{
			"Id": "Param_Angle_Rotation_3_ArtMesh45",
			"GroupId": "ParamGroup13",
			"Name": "[2]Layer 293"
		},
		{
			"Id": "Param_Angle_Rotation_4_ArtMesh45",
			"GroupId": "ParamGroup13",
			"Name": "[3]Layer 293"
		},
		{
			"Id": "Param_Angle_Rotation_5_ArtMesh45",
			"GroupId": "ParamGroup13",
			"Name": "[4]Layer 293"
		}
	],
	"ParameterGroups": [
		{
			"Id": "ParamGroup",
			"GroupId": "",
			"Name": "Face"
		},
		{
			"Id": "ParamGroup2",
			"GroupId": "",
			"Name": "Aug"
		},
		{
			"Id": "ParamGroup3",
			"GroupId": "",
			"Name": "Eyes"
		},
		{
			"Id": "ParamGroup4",
			"GroupId": "",
			"Name": "Brows"
		},
		{
			"Id": "ParamGroup5",
			"GroupId": "",
			"Name": "Mouth"
		},
		{
			"Id": "ParamGroup6",
			"GroupId": "",
			"Name": "Body"
		},
		{
			"Id": "ParamGroup11",
			"GroupId": "",
			"Name": "Outfits"
		},
		{
			"Id": "ParamGroup7",
			"GroupId": "",
			"Name": "FX"
		},
		{
			"Id": "ParamGroup8",
			"GroupId": "",
			"Name": "Physics"
		},
		{
			"Id": "ParamGroup9",
			"GroupId": "",
			"Name": "Layer 288"
		},
		{
			"Id": "ParamGroup10",
			"GroupId": "",
			"Name": "Layer 287"
		},
		{
			"Id": "ParamGroup12",
			"GroupId": "",
			"Name": "Layer 292"
		},
		{
			"Id": "ParamGroup13",
			"GroupId": "",
			"Name": "Layer 293"
		}
	],
	"Parts": [
		{
			"Id": "Part32",
			"Name": "Back skirt.psd"
		},
		{
			"Id": "Part31",
			"Name": "PantyShot Final.psd"
		},
		{
			"Id": "Part30",
			"Name": "Open blouse.psd"
		},
		{
			"Id": "Part29",
			"Name": "Arm 2.psd"
		},
		{
			"Id": "Part25",
			"Name": "HanaL2D FX.psd"
		},
		{
			"Id": "Part22",
			"Name": "JhinL2D FX.psd"
		},
		{
			"Id": "Part21",
			"Name": "fx.psd"
		},
		{
			"Id": "Part19",
			"Name": "skull.psd"
		},
		{
			"Id": "Main",
			"Name": "Main"
		},
		{
			"Id": "Part28",
			"Name": "Arm 02"
		},
		{
			"Id": "Part23",
			"Name": "FX Copy"
		},
		{
			"Id": "FX2",
			"Name": "FX"
		},
		{
			"Id": "FX",
			"Name": "FX"
		},
		{
			"Id": "skull2",
			"Name": "skull"
		},
		{
			"Id": "MouthDefault",
			"Name": "MouthDefault"
		},
		{
			"Id": "nose",
			"Name": "nose"
		},
		{
			"Id": "Eyes",
			"Name": "Eyes"
		},
		{
			"Id": "Part2",
			"Name": "Hair front"
		},
		{
			"Id": "Face",
			"Name": "Face"
		},
		{
			"Id": "Ears",
			"Name": "Ears"
		},
		{
			"Id": "ArtMesh56_Skinning",
			"Name": "Hue/Saturation 1 copy 3(Skinning)"
		},
		{
			"Id": "Part16",
			"Name": "Hue/Saturation 1 copy 3(Rotation)"
		},
		{
			"Id": "Body",
			"Name": "Body"
		},
		{
			"Id": "Horns",
			"Name": "Horns"
		},
		{
			"Id": "Legs",
			"Name": "Legs"
		},
		{
			"Id": "Part11",
			"Name": "Back Skirt"
		},
		{
			"Id": "Part12",
			"Name": "Hair back"
		},
		{
			"Id": "Tired",
			"Name": "Tired"
		},
		{
			"Id": "Part24",
			"Name": "Heart eyes"
		},
		{
			"Id": "Part20",
			"Name": "Head Stars"
		},
		{
			"Id": "Cry",
			"Name": "Cry"
		},
		{
			"Id": "Stars",
			"Name": "Stars"
		},
		{
			"Id": "Part",
			"Name": "Folder 7"
		},
		{
			"Id": "Part3",
			"Name": "Folder 45"
		},
		{
			"Id": "ArtMesh45_Skinning",
			"Name": "Layer 293(Skinning)"
		},
		{
			"Id": "Part27",
			"Name": "Layer 293(Rotation)"
		},
		{
			"Id": "Part4",
			"Name": "Folder 17"
		},
		{
			"Id": "Arms",
			"Name": "Arms"
		},
		{
			"Id": "Part7",
			"Name": "Folder 18 Copy"
		},
		{
			"Id": "Part8",
			"Name": "Folder 18 Copy 2"
		},
		{
			"Id": "Part9",
			"Name": "Group 2"
		},
		{
			"Id": "Part13",
			"Name": "Folder 41 copy"
		},
		{
			"Id": "Part14",
			"Name": "Folder 41"
		},
		{
			"Id": "Part5",
			"Name": "Group 1"
		},
		{
			"Id": "Part6",
			"Name": "Group 1 copy"
		},
		{
			"Id": "Part18",
			"Name": "Hue/Saturation 1 copy 9(Rotation)"
		},
		{
			"Id": "ArtMesh60_Skinning",
			"Name": "Layer 287(Skinning)"
		},
		{
			"Id": "Part15",
			"Name": "Layer 287(Rotation)"
		},
		{
			"Id": "Part17",
			"Name": "Hue/Saturation 1 copy 8(Rotation)"
		},
		{
			"Id": "ArtMesh44_Skinning",
			"Name": "Layer 292(Skinning)"
		},
		{
			"Id": "Part26",
			"Name": "Layer 292(Rotation)"
		},
		{
			"Id": "ArtMesh61_Skinning",
			"Name": "Layer 288(Skinning)"
		},
		{
			"Id": "Part10",
			"Name": "Layer 288(Rotation)"
		}
	],
	"CombinedParameters": [
		[
			"ParamEyeBallX",
			"ParamEyeBallY"
		],
		[
			"Param38",
			"Param37"
		],
		[
			"Skirt_A1",
			"Skirt_A2"
		]
	]
}