{
	"Type": "Live2D Expression",
	"FadeInTime": 1.5,
	"Parameters": [
		{
			"Id": "ParamBrowLY",
			"Value": 0,
			"Blend": "Overwrite"
		},
		{
			"Id": "ParamBrowRY",
			"Value": 0.512,
			"Blend": "Overwrite"
		},
		{
			"Id": "BrowL_X",
			"Value": -25.814,
			"Blend": "Overwrite"
		},
		{
			"Id": "ParamBrowLAngle",
			"Value": 0.791,
			"Blend": "Overwrite"
		},
		{
			"Id": "ParamBrowRAngle",
			"Value": 0.837,
			"Blend": "Overwrite"
		},
		{
			"Id": "ParamBrowLForm",
			"Value": -0.907,
			"Blend": "Overwrite"
		},
		{
			"Id": "ParamBrowRForm",
			"Value": -1,
			"Blend": "Overwrite"
		}
	]
}