{
	"Type": "Live2D Expression",
	"FadeInTime": 1.5,
	"Parameters": [
		{
			"Id": "ParamAngleX",
			"Value": 0,
			"Blend": "Overwrite"
		},
		{
			"Id": "ExtraAngleX",
			"Value": 0,
			"Blend": "Overwrite"
		},
		{
			"Id": "ParamAngleY",
			"Value": 0,
			"Blend": "Overwrite"
		},
		{
			"Id": "ExtraAngleY",
			"Value": 0,
			"Blend": "Overwrite"
		},
		{
			"Id": "ParamAngleZ",
			"Value": 0,
			"Blend": "Overwrite"
		},
		{
			"Id": "ExtraAngleZ",
			"Value": 0,
			"Blend": "Overwrite"
		},
		{
			"Id": "ParamEyeLOpen",
			"Value": 0.823,
			"Blend": "Overwrite"
		},
		{
			"Id": "EyeShape_L",
			"Value": 0,
			"Blend": "Overwrite"
		},
		{
			"Id": "ParamEyeLSmile",
			"Value": 0,
			"Blend": "Overwrite"
		},
		{
			"Id": "ParamEyeROpen",
			"Value": 0.809,
			"Blend": "Overwrite"
		},
		{
			"Id": "EyeShape_R",
			"Value": 0,
			"Blend": "Overwrite"
		},
		{
			"Id": "ParamEyeRSmile",
			"Value": 0,
			"Blend": "Overwrite"
		},
		{
			"Id": "ParamEyeBallX",
			"Value": 0,
			"Blend": "Overwrite"
		},
		{
			"Id": "ParamEyeBallY",
			"Value": -0.698,
			"Blend": "Overwrite"
		},
		{
			"Id": "ParamBrowRY",
			"Value": 0,
			"Blend": "Overwrite"
		},
		{
			"Id": "BrowL_X",
			"Value": -15.349,
			"Blend": "Overwrite"
		},
		{
			"Id": "ParamBrowLAngle",
			"Value": -0.233,
			"Blend": "Overwrite"
		},
		{
			"Id": "ParamBrowRAngle",
			"Value": -0.419,
			"Blend": "Overwrite"
		},
		{
			"Id": "ParamBrowLForm",
			"Value": -0.791,
			"Blend": "Overwrite"
		},
		{
			"Id": "ParamBrowRForm",
			"Value": -0.977,
			"Blend": "Overwrite"
		},
		{
			"Id": "Mouth_Default",
			"Value": 0,
			"Blend": "Overwrite"
		},
		{
			"Id": "m_Sad01",
			"Value": 1,
			"Blend": "Overwrite"
		},
		{
			"Id": "m_Annoyed01",
			"Value": 0,
			"Blend": "Overwrite"
		},
		{
			"Id": "m_Surprise01",
			"Value": 0,
			"Blend": "Overwrite"
		},
		{
			"Id": "m_Surprise02",
			"Value": 0,
			"Blend": "Overwrite"
		},
		{
			"Id": "m_Open01",
			"Value": 0,
			"Blend": "Overwrite"
		},
		{
			"Id": "m_Happy01",
			"Value": 0,
			"Blend": "Overwrite"
		},
		{
			"Id": "m_Annoyed02",
			"Value": 0,
			"Blend": "Overwrite"
		},
		{
			"Id": "m_Open02",
			"Value": 0,
			"Blend": "Overwrite"
		},
		{
			"Id": "m_Happy02",
			"Value": 0,
			"Blend": "Overwrite"
		},
		{
			"Id": "m_Annoyed03",
			"Value": 0,
			"Blend": "Overwrite"
		},
		{
			"Id": "m_Annoyed04",
			"Value": 0,
			"Blend": "Overwrite"
		},
		{
			"Id": "m_Open03",
			"Value": 0,
			"Blend": "Overwrite"
		},
		{
			"Id": "m_Annoyed05",
			"Value": 0,
			"Blend": "Overwrite"
		},
		{
			"Id": "m_Open04",
			"Value": 0,
			"Blend": "Overwrite"
		}
	]
}