{
	"Type": "Live2D Expression",
	"FadeInTime": 1.5,
	"Parameters": [
		{
			"Id": "ParamEyeBallX",
			"Value": 0,
			"Blend": "Overwrite"
		},
		{
			"Id": "ParamEyeBallY",
			"Value": -1,
			"Blend": "Overwrite"
		}
	]
}