{
	"Type": "Live2D Expression",
	"FadeInTime": 1.5,
	"Parameters": [
		{
			"Id": "Alt_AngleX",
			"Value": 0,
			"Blend": "Overwrite"
		},
		{
			"Id": "Alt_AngleY",
			"Value": -8,
			"Blend": "Overwrite"
		},
		{
			"Id": "Alt_AngleZ",
			"Value": 0.5,
			"Blend": "Overwrite"
		},
		{
			"Id": "ParamEyeLOpen",
			"Value": 0.9,
			"Blend": "Overwrite"
		},
		{
			"Id": "ParamEyeLSmile",
			"Value": 0,
			"Blend": "Overwrite"
		},
		{
			"Id": "ParamEyeROpen",
			"Value": 0.84,
			"Blend": "Overwrite"
		},
		{
			"Id": "ParamEyeRSmile",
			"Value": 0,
			"Blend": "Overwrite"
		},
		{
			"Id": "ParamEyeBallX",
			"Value": 0,
			"Blend": "Overwrite"
		},
		{
			"Id": "ParamEyeBallY",
			"Value": -1,
			"Blend": "Overwrite"
		},
		{
			"Id": "spotlight_switch",
			"Value": 1,
			"Blend": "Overwrite"
		},
		{
			"Id": "Eyes_size",
			"Value": 1,
			"Blend": "Overwrite"
		},
		{
			"Id": "ParamBrowLY",
			"Value": 0,
			"Blend": "Overwrite"
		},
		{
			"Id": "ParamBrowRY",
			"Value": 0,
			"Blend": "Overwrite"
		},
		{
			"Id": "ParamBrowLAngle",
			"Value": 0.55,
			"Blend": "Overwrite"
		},
		{
			"Id": "ParamBrowRAngle",
			"Value": 0.75,
			"Blend": "Overwrite"
		},
		{
			"Id": "ParamBrowLForm",
			"Value": -1,
			"Blend": "Overwrite"
		},
		{
			"Id": "ParamBrowRForm",
			"Value": -1,
			"Blend": "Overwrite"
		},
		{
			"Id": "m_Default",
			"Value": 1,
			"Blend": "Overwrite"
		},
		{
			"Id": "m_Open01",
			"Value": 0,
			"Blend": "Overwrite"
		},
		{
			"Id": "m_Open02",
			"Value": 0,
			"Blend": "Overwrite"
		},
		{
			"Id": "m_Open03",
			"Value": 0,
			"Blend": "Overwrite"
		},
		{
			"Id": "m_Annoyed01",
			"Value": 0,
			"Blend": "Overwrite"
		},
		{
			"Id": "m_Open04",
			"Value": 0,
			"Blend": "Overwrite"
		},
		{
			"Id": "m_Smile01",
			"Value": 0,
			"Blend": "Overwrite"
		},
		{
			"Id": "m_Annoyed02",
			"Value": 0,
			"Blend": "Overwrite"
		},
		{
			"Id": "m_Smile02",
			"Value": 0,
			"Blend": "Overwrite"
		}
	]
}