{
	"Type": "Live2D Expression",
	"FadeInTime": 1.5,
	"Parameters": [
		{
			"Id": "ParamEyeLOpen",
			"Value": 0.701,
			"Blend": "Overwrite"
		},
		{
			"Id": "ParamEyeLSmile",
			"Value": 0,
			"Blend": "Overwrite"
		},
		{
			"Id": "ParamEyeROpen",
			"Value": 0.749,
			"Blend": "Overwrite"
		},
		{
			"Id": "ParamEyeRSmile",
			"Value": 0,
			"Blend": "Overwrite"
		},
		{
			"Id": "ParamEyeBallX",
			"Value": 0,
			"Blend": "Overwrite"
		},
		{
			"Id": "ParamEyeBallY",
			"Value": 0,
			"Blend": "Overwrite"
		}
	]
}