{
	"Type": "Live2D Expression",
	"FadeInTime": 1.5,
	"Parameters": [
		{
			"Id": "m_Open01",
			"Value": 0,
			"Blend": "Overwrite"
		},
		{
			"Id": "m_Open02",
			"Value": 0,
			"Blend": "Overwrite"
		},
		{
			"Id": "m_Default",
			"Value": 0,
			"Blend": "Overwrite"
		},
		{
			"Id": "m_Open03",
			"Value": 0,
			"Blend": "Overwrite"
		},
		{
			"Id": "m_Annoyed01",
			"Value": 0,
			"Blend": "Overwrite"
		},
		{
			"Id": "m_Open04",
			"Value": 1,
			"Blend": "Overwrite"
		},
		{
			"Id": "m_Smile01",
			"Value": 0,
			"Blend": "Overwrite"
		},
		{
			"Id": "m_Annoyed02",
			"Value": 0,
			"Blend": "Overwrite"
		},
		{
			"Id": "m_Smile02",
			"Value": 0,
			"Blend": "Overwrite"
		}
	]
}